Suite/Test/Step Name,Browser,Description,Tag,Start time,End time,Duration,Status
Feature Tolak Tawaran,,,,2023-02-22 14:40:15,2023-02-22 14:42:07,1m - 51.448s,FAILED
,,,,,,,
Test Cases/Step Definition/Feature Login/LGI001 - User login using registered email and correct password,,User want to login using registered email and correct password,NormalLogin,2023-02-22 14:40:16,2023-02-22 14:41:28,1m - 11.813s,FAILED
Start listener action : sampleBeforeTestCase,,,,2023-02-22 14:40:16,2023-02-22 14:40:44,28.142s,PASSED
Start listener action : sampleBeforeTestCase,,,,2023-02-22 14:40:44,2023-02-22 14:40:55,10.959s,PASSED
"callTestCase(findTestCase(""Pages/Page Akun/Verify Element Akun - before login""), [:], STOP_ON_FAILURE)",,,,2023-02-22 14:40:56,2023-02-22 14:41:27,31.690s,FAILED
Start listener action : sampleAfterTestCase,,,,2023-02-22 14:41:27,2023-02-22 14:41:28,0.512s,PASSED
Start listener action : sampleAfterTestCase,,,,2023-02-22 14:41:28,2023-02-22 14:41:28,0.014s,PASSED
,,,,,,,
Test Cases/Step Definition/Feature Diminati/Tolak Penawaran,,,,2023-02-22 14:41:28,2023-02-22 14:42:07,38.833s,PASSED
Start listener action : sampleBeforeTestCase,,,,2023-02-22 14:41:28,2023-02-22 14:41:45,17.064s,PASSED
Start listener action : sampleBeforeTestCase,,,,2023-02-22 14:41:45,2023-02-22 14:41:56,10.684s,PASSED
"callTestCase(findTestCase(""Pages/Page Beranda/Tap Navigation Bar Akun""), [:], STOP_ON_FAILURE)",,,,2023-02-22 14:41:56,2023-02-22 14:41:58,1.425s,PASSED
"callTestCase(findTestCase(""Pages/Page Daftar Jual Saya/Navigate to Daftar Jual Saya Page""), [:], STOP_ON_FAILURE)",,,,2023-02-22 14:41:58,2023-02-22 14:41:59,1.027s,PASSED
"callTestCase(findTestCase(""Pages/Page Daftar Jual Saya/Navigate to Diminati Page""), [:], STOP_ON_FAILURE)",,,,2023-02-22 14:41:59,2023-02-22 14:42:02,3.220s,PASSED
"callTestCase(findTestCase(""Pages/Page Daftar Jual Saya/Page Diminati/Go to the Detail Produk - Tolak""), [:], STOP_ON_FAILURE)",,,,2023-02-22 14:42:02,2023-02-22 14:42:05,3.211s,PASSED
"callTestCase(findTestCase(""Pages/Page Daftar Jual Saya/Page Diminati/Tap button Tolak""), [:], STOP_ON_FAILURE)",,,,2023-02-22 14:42:05,2023-02-22 14:42:06,1.248s,PASSED
Start listener action : sampleAfterTestCase,,,,2023-02-22 14:42:06,2023-02-22 14:42:07,0.462s,PASSED
Start listener action : sampleAfterTestCase,,,,2023-02-22 14:42:07,2023-02-22 14:42:07,0.015s,PASSED
