[35m[Appium][39m Welcome to Appium v1.22.3
[35m[Appium][39m Non-default server args:
[35m[Appium][39m   port: 63873
[35m[Appium][39m   loglevel: info
[35m[Appium][39m   tmpDir: C:\Users\DEBORA~1\AppData\Local\Temp\\Katalon\Appium\Temp1677077656384
[35m[Appium][39m   chromedriverPort: 63874
[35m[Appium][39m Deprecated server args:
[35m[Appium][39m   [31m--chromedriver-port[39m => --default-capabilities
[35m[Appium][39m Default capabilities, which will be added to each request unless overridden by desired capabilities:
[35m[Appium][39m   chromedriverPort: 63874
[35m[Appium][39m Appium REST http interface listener started on 0.0.0.0:63873
[35m[HTTP][39m [37m-->[39m [37mGET[39m [37m/wd/hub/status[39m
[35m[HTTP][39m [90m{}[39m
[35m[HTTP][39m [37m<-- GET /wd/hub/status [39m[32m200[39m [90m16 ms - 68[39m
[35m[HTTP][39m [90m[39m
[35m[HTTP][39m [37m-->[39m [37mPOST[39m [37m/wd/hub/session[39m
[35m[HTTP][39m [90m{"desiredCapabilities":{"app":"F:\\BINAR-FINAL PROJECT\\Katalon\\automation-andro-kelompok2\\Apk\\app-binar-mobile.apk","noReset":true,"waitAppforLunch":false,"deviceId":"emulator-5554","deviceName":"emulator-5554 (Android SDK built for x86 - Android 8.0.0)","fullReset":false,"platform":"ANDROID","waitAppActivity":"*","newCommandTimeout":1800,"platformVersion":"8.0.0","automationName":"uiautomator2","autoGrantPermissions":true,"platformName":"Android","udid":"emulator-5554","systemPort":63872},"capabilities":{"firstMatch":[{"appium:app":"F:\\BINAR-FINAL PROJECT\\Katalon\\automation-andro-kelompok2\\Apk\\app-binar-mobile.apk","appium:autoGrantPermissions":true,"appium:automationName":"uiautomator2","deviceId":"emulator-5554","appium:deviceName":"emulator-5554 (Android SDK built for x86 - Android 8.0.0)","appium:fullReset":false,"appium:newCommandTimeout":1800,"appium:noReset":true,"platform":"ANDROID","platformName":"android","appium:platformVersion":"8.0.0","appium:systemPort":63872,"appium:udid":"emulator...[39m
[35m[BaseDriver][39m The following capabilities are not standard capabilities and should have an extension prefix:
[35m[BaseDriver][39m   deviceId
[35m[BaseDriver][39m   platform
[35m[BaseDriver][39m   waitAppActivity
[35m[BaseDriver][39m   waitAppforLunch
[35m[BaseDriver][39m   chromedriverPort
[35m[Appium][39m Appium v1.22.3 creating new AndroidUiautomator2Driver (v1.70.1) session
[35m[BaseDriver][39m The following capabilities were provided, but are not recognized by Appium:
[35m[BaseDriver][39m   deviceId
[35m[BaseDriver][39m   platform
[35m[BaseDriver][39m   waitAppActivity
[35m[BaseDriver][39m   waitAppforLunch
[35m[BaseDriver][39m Session created with session id: aa5b7e55-b282-470e-afca-1030f7b0f3be
[35m[BaseDriver][39m Using local app 'F:\BINAR-FINAL PROJECT\Katalon\automation-andro-kelompok2\Apk\app-binar-mobile.apk'
[35m[ADB][39m Found 2 'build-tools' folders under 'D:\Apps\Android\sdk' (newest first):
[35m[ADB][39m     D:/Apps/Android/sdk/build-tools/33.0.1
[35m[ADB][39m     D:/Apps/Android/sdk/build-tools/25.0.3
[35m[ADB][39m Using 'adb.exe' from 'D:\Apps\Android\sdk\platform-tools\adb.exe'
[35m[AndroidDriver][39m Retrieving device list
[35m[AndroidDriver][39m Using device: emulator-5554
[35m[ADB][39m Using 'adb.exe' from 'D:\Apps\Android\sdk\platform-tools\adb.exe'
[35m[ADB][39m Package name: 'id.binar.fp.secondhand'
[35m[ADB][39m Main activity name: 'id.binar.fp.secondhand.ui.main.MainActivity'
[35m[ADB][39m Using 'apksigner.jar' from 'D:\Apps\Android\sdk\build-tools\33.0.1\lib\apksigner.jar'
[35m[ADB][39m 'C:\Users\Debora Issadha\AppData\Roaming\npm\node_modules\appium\node_modules\appium-uiautomator2-server\apks\appium-uiautomator2-server-v4.27.0.apk' is signed with the default certificate
[35m[ADB][39m 'C:\Users\Debora Issadha\AppData\Roaming\npm\node_modules\appium\node_modules\appium-uiautomator2-server\apks\appium-uiautomator2-server-debug-androidTest.apk' is signed with the default certificate
[35m[UiAutomator2][39m Server packages are not going to be (re)installed
[35m[ADB][39m Adding packages ["io.appium.settings","io.appium.uiautomator2.server","io.appium.uiautomator2.server.test"] to Doze whitelist
[35m[ADB][39m 'F:\BINAR-FINAL PROJECT\Katalon\automation-andro-kelompok2\Apk\app-binar-mobile.apk' is signed with a non-default certificate
[35m[UiAutomator2][39m Starting UIAutomator2 server 4.27.0
[35m[UiAutomator2][39m Using UIAutomator2 server from 'C:\Users\Debora Issadha\AppData\Roaming\npm\node_modules\appium\node_modules\appium-uiautomator2-server\apks\appium-uiautomator2-server-v4.27.0.apk' and test from 'C:\Users\Debora Issadha\AppData\Roaming\npm\node_modules\appium\node_modules\appium-uiautomator2-server\apks\appium-uiautomator2-server-debug-androidTest.apk'
[35m[UiAutomator2][39m Waiting up to 30000ms for UiAutomator2 to be online...
[35m[WD Proxy][39m socket hang up
[35m[WD Proxy][39m socket hang up
[35m[WD Proxy][39m socket hang up
[35m[WD Proxy][39m socket hang up
[35m[WD Proxy][39m Determined the downstream protocol as 'W3C'
[35m[AndroidDriver][39m Screen already unlocked, doing nothing
[35m[UiAutomator2][39m Starting 'id.binar.fp.secondhand/id.binar.fp.secondhand.ui.main.MainActivity and waiting for 'id.binar.fp.secondhand/id.binar.fp.secondhand.ui.main.MainActivity'
[35m[Appium][39m New AndroidUiautomator2Driver session created successfully, session aa5b7e55-b282-470e-afca-1030f7b0f3be added to master session list
[35m[HTTP][39m [37m<-- POST /wd/hub/session [39m[32m200[39m [90m17632 ms - 1534[39m
[35m[HTTP][39m [90m[39m
[35m[HTTP][39m [37m-->[39m [37mGET[39m [37m/wd/hub/session/aa5b7e55-b282-470e-afca-1030f7b0f3be[39m
[35m[HTTP][39m [90m{}[39m
[35m[HTTP][39m [37m<-- GET /wd/hub/session/aa5b7e55-b282-470e-afca-1030f7b0f3be [39m[32m200[39m [90m36 ms - 1488[39m
[35m[HTTP][39m [90m[39m
[35m[HTTP][39m [37m-->[39m [37mGET[39m [37m/wd/hub/session/aa5b7e55-b282-470e-afca-1030f7b0f3be[39m
[35m[HTTP][39m [90m{}[39m
[35m[HTTP][39m [37m<-- GET /wd/hub/session/aa5b7e55-b282-470e-afca-1030f7b0f3be [39m[32m200[39m [90m41 ms - 1488[39m
[35m[HTTP][39m [90m[39m
[35m[HTTP][39m [37m-->[39m [37mGET[39m [37m/wd/hub/status[39m
[35m[HTTP][39m [90m{}[39m
[35m[HTTP][39m [37m<-- GET /wd/hub/status [39m[32m200[39m [90m3 ms - 68[39m
[35m[HTTP][39m [90m[39m
[35m[HTTP][39m [37m-->[39m [37mPOST[39m [37m/wd/hub/session/aa5b7e55-b282-470e-afca-1030f7b0f3be/timeouts[39m
[35m[HTTP][39m [90m{"implicit":30000}[39m
[35m[HTTP][39m [37m<-- POST /wd/hub/session/aa5b7e55-b282-470e-afca-1030f7b0f3be/timeouts [39m[32m200[39m [90m9 ms - 14[39m
[35m[HTTP][39m [90m[39m
[35m[HTTP][39m [37m-->[39m [37mGET[39m [37m/wd/hub/session/aa5b7e55-b282-470e-afca-1030f7b0f3be/screenshot[39m
[35m[HTTP][39m [90m{}[39m
[35m[HTTP][39m [37m<-- GET /wd/hub/session/aa5b7e55-b282-470e-afca-1030f7b0f3be/screenshot [39m[32m200[39m [90m1440 ms - 142556[39m
[35m[HTTP][39m [90m[39m
[35m[HTTP][39m [37m-->[39m [37mGET[39m [37m/wd/hub/session/aa5b7e55-b282-470e-afca-1030f7b0f3be/window/rect[39m
[35m[HTTP][39m [90m{}[39m
[35m[HTTP][39m [37m<-- GET /wd/hub/session/aa5b7e55-b282-470e-afca-1030f7b0f3be/window/rect [39m[32m200[39m [90m55 ms - 50[39m
[35m[HTTP][39m [90m[39m
[35m[HTTP][39m [37m-->[39m [37mGET[39m [37m/wd/hub/session/aa5b7e55-b282-470e-afca-1030f7b0f3be/appium/device/system_bars[39m
[35m[HTTP][39m [90m{}[39m
[35m[HTTP][39m [37m<-- GET /wd/hub/session/aa5b7e55-b282-470e-afca-1030f7b0f3be/appium/device/system_bars [39m[32m200[39m [90m155 ms - 151[39m
[35m[HTTP][39m [90m[39m
[35m[HTTP][39m [37m-->[39m [37mPOST[39m [37m/wd/hub/session/aa5b7e55-b282-470e-afca-1030f7b0f3be/timeouts[39m
[35m[HTTP][39m [90m{"implicit":50}[39m
[35m[HTTP][39m [37m<-- POST /wd/hub/session/aa5b7e55-b282-470e-afca-1030f7b0f3be/timeouts [39m[32m200[39m [90m8 ms - 14[39m
[35m[HTTP][39m [90m[39m
[35m[HTTP][39m [37m-->[39m [37mGET[39m [37m/wd/hub/session/aa5b7e55-b282-470e-afca-1030f7b0f3be/window/rect[39m
[35m[HTTP][39m [90m{}[39m
[35m[HTTP][39m [37m<-- GET /wd/hub/session/aa5b7e55-b282-470e-afca-1030f7b0f3be/window/rect [39m[32m200[39m [90m41 ms - 50[39m
[35m[HTTP][39m [90m[39m
[35m[HTTP][39m [37m-->[39m [37mPOST[39m [37m/wd/hub/session/aa5b7e55-b282-470e-afca-1030f7b0f3be/elements[39m
[35m[HTTP][39m [90m{"using":"xpath","value":"//hierarchy/android.widget.FrameLayout[1]/android.widget.LinearLayout[1]/android.widget.FrameLayout[1]/android.widget.LinearLayout[1]/android.widget.FrameLayout[1]/android.view.ViewGroup[1]/android.widget.FrameLayout[1]/android.view.ViewGroup[1]/android.widget.ScrollView[1]/android.widget.LinearLayout[1]/android.widget.FrameLayout[2]/androidx.recyclerview.widget.RecyclerView[1]/androidx.cardview.widget.CardView[2]/android.view.ViewGroup[1]"}[39m
[35m[HTTP][39m [37m<-- POST /wd/hub/session/aa5b7e55-b282-470e-afca-1030f7b0f3be/elements [39m[32m200[39m [90m2807 ms - 12[39m
[35m[HTTP][39m [90m[39m
[35m[HTTP][39m [37m-->[39m [37mPOST[39m [37m/wd/hub/session/aa5b7e55-b282-470e-afca-1030f7b0f3be/elements[39m
[35m[HTTP][39m [90m{"using":"xpath","value":"//hierarchy/android.widget.FrameLayout[1]/android.widget.LinearLayout[1]/android.widget.FrameLayout[1]/android.widget.LinearLayout[1]/android.widget.FrameLayout[1]/android.view.ViewGroup[1]/android.widget.FrameLayout[1]/android.view.ViewGroup[1]/android.widget.ScrollView[1]/android.widget.LinearLayout[1]/android.widget.FrameLayout[2]/androidx.recyclerview.widget.RecyclerView[1]/androidx.cardview.widget.CardView[2]/android.view.ViewGroup[1]"}[39m
[35m[HTTP][39m [37m<-- POST /wd/hub/session/aa5b7e55-b282-470e-afca-1030f7b0f3be/elements [39m[32m200[39m [90m1054 ms - 139[39m
[35m[HTTP][39m [90m[39m
[35m[HTTP][39m [37m-->[39m [37mGET[39m [37m/wd/hub/session/aa5b7e55-b282-470e-afca-1030f7b0f3be/element/00000000-0000-001c-ffff-ffff000000a2/location[39m
[35m[HTTP][39m [90m{}[39m
[35m[W3C (aa5b7e55)][39m Driver proxy active, passing request on via HTTP proxy
[35m[WD Proxy][39m Replacing sessionId cd859d06-b6c3-4f0e-bd1a-0225dd43baff with aa5b7e55-b282-470e-afca-1030f7b0f3be
[35m[HTTP][39m [37m<-- GET /wd/hub/session/aa5b7e55-b282-470e-afca-1030f7b0f3be/element/00000000-0000-001c-ffff-ffff000000a2/location [39m[32m200[39m [90m92 ms - 78[39m
[35m[HTTP][39m [90m[39m
[35m[HTTP][39m [37m-->[39m [37mPOST[39m [37m/wd/hub/session/aa5b7e55-b282-470e-afca-1030f7b0f3be/timeouts[39m
[35m[HTTP][39m [90m{"implicit":30000}[39m
[35m[HTTP][39m [37m<-- POST /wd/hub/session/aa5b7e55-b282-470e-afca-1030f7b0f3be/timeouts [39m[32m200[39m [90m2 ms - 14[39m
[35m[HTTP][39m [90m[39m
[35m[HTTP][39m [37m-->[39m [37mPOST[39m [37m/wd/hub/session/aa5b7e55-b282-470e-afca-1030f7b0f3be/timeouts[39m
[35m[HTTP][39m [90m{"implicit":50}[39m
[35m[HTTP][39m [37m<-- POST /wd/hub/session/aa5b7e55-b282-470e-afca-1030f7b0f3be/timeouts [39m[32m200[39m [90m4 ms - 14[39m
[35m[HTTP][39m [90m[39m
[35m[HTTP][39m [37m-->[39m [37mGET[39m [37m/wd/hub/session/aa5b7e55-b282-470e-afca-1030f7b0f3be/window/rect[39m
[35m[HTTP][39m [90m{}[39m
[35m[HTTP][39m [37m<-- GET /wd/hub/session/aa5b7e55-b282-470e-afca-1030f7b0f3be/window/rect [39m[32m200[39m [90m59 ms - 50[39m
[35m[HTTP][39m [90m[39m
[35m[HTTP][39m [37m-->[39m [37mPOST[39m [37m/wd/hub/session/aa5b7e55-b282-470e-afca-1030f7b0f3be/elements[39m
[35m[HTTP][39m [90m{"using":"xpath","value":"//hierarchy/android.widget.FrameLayout[1]/android.widget.LinearLayout[1]/android.widget.FrameLayout[1]/android.widget.LinearLayout[1]/android.widget.FrameLayout[1]/android.view.ViewGroup[1]/android.widget.FrameLayout[1]/android.view.ViewGroup[1]/android.widget.ScrollView[1]/android.widget.LinearLayout[1]/android.widget.FrameLayout[2]/androidx.recyclerview.widget.RecyclerView[1]/androidx.cardview.widget.CardView[1]/android.view.ViewGroup[1]"}[39m
[35m[HTTP][39m [37m<-- POST /wd/hub/session/aa5b7e55-b282-470e-afca-1030f7b0f3be/elements [39m[32m200[39m [90m1066 ms - 139[39m
[35m[HTTP][39m [90m[39m
[35m[HTTP][39m [37m-->[39m [37mGET[39m [37m/wd/hub/session/aa5b7e55-b282-470e-afca-1030f7b0f3be/element/00000000-0000-001c-ffff-ffff0000009f/location[39m
[35m[HTTP][39m [90m{}[39m
[35m[W3C (aa5b7e55)][39m Driver proxy active, passing request on via HTTP proxy
[35m[WD Proxy][39m Replacing sessionId cd859d06-b6c3-4f0e-bd1a-0225dd43baff with aa5b7e55-b282-470e-afca-1030f7b0f3be
[35m[HTTP][39m [37m<-- GET /wd/hub/session/aa5b7e55-b282-470e-afca-1030f7b0f3be/element/00000000-0000-001c-ffff-ffff0000009f/location [39m[32m200[39m [90m306 ms - 77[39m
[35m[HTTP][39m [90m[39m
[35m[HTTP][39m [37m-->[39m [37mPOST[39m [37m/wd/hub/session/aa5b7e55-b282-470e-afca-1030f7b0f3be/timeouts[39m
[35m[HTTP][39m [90m{"implicit":30000}[39m
[35m[HTTP][39m [37m<-- POST /wd/hub/session/aa5b7e55-b282-470e-afca-1030f7b0f3be/timeouts [39m[32m200[39m [90m2 ms - 14[39m
[35m[HTTP][39m [90m[39m
[35m[HTTP][39m [37m-->[39m [37mPOST[39m [37m/wd/hub/session/aa5b7e55-b282-470e-afca-1030f7b0f3be/timeouts[39m
[35m[HTTP][39m [90m{"implicit":50}[39m
[35m[HTTP][39m [37m<-- POST /wd/hub/session/aa5b7e55-b282-470e-afca-1030f7b0f3be/timeouts [39m[32m200[39m [90m3 ms - 14[39m
[35m[HTTP][39m [90m[39m
[35m[HTTP][39m [37m-->[39m [37mGET[39m [37m/wd/hub/session/aa5b7e55-b282-470e-afca-1030f7b0f3be/window/rect[39m
[35m[HTTP][39m [90m{}[39m
[35m[HTTP][39m [37m<-- GET /wd/hub/session/aa5b7e55-b282-470e-afca-1030f7b0f3be/window/rect [39m[32m200[39m [90m38 ms - 50[39m
[35m[HTTP][39m [90m[39m
[35m[HTTP][39m [37m-->[39m [37mPOST[39m [37m/wd/hub/session/aa5b7e55-b282-470e-afca-1030f7b0f3be/elements[39m
[35m[HTTP][39m [90m{"using":"xpath","value":"//hierarchy/android.widget.FrameLayout[1]/android.widget.LinearLayout[1]/android.widget.FrameLayout[1]/android.widget.LinearLayout[1]/android.widget.FrameLayout[1]/android.view.ViewGroup[1]/android.widget.FrameLayout[1]/android.view.ViewGroup[1]/android.widget.ScrollView[1]/android.widget.LinearLayout[1]/android.widget.FrameLayout[2]/androidx.recyclerview.widget.RecyclerView[1]/androidx.cardview.widget.CardView[3]/android.view.ViewGroup[1]"}[39m
[35m[HTTP][39m [37m<-- POST /wd/hub/session/aa5b7e55-b282-470e-afca-1030f7b0f3be/elements [39m[32m200[39m [90m668 ms - 139[39m
[35m[HTTP][39m [90m[39m
[35m[HTTP][39m [37m-->[39m [37mGET[39m [37m/wd/hub/session/aa5b7e55-b282-470e-afca-1030f7b0f3be/element/00000000-0000-001c-ffff-ffff000000a5/location[39m
[35m[HTTP][39m [90m{}[39m
[35m[W3C (aa5b7e55)][39m Driver proxy active, passing request on via HTTP proxy
[35m[WD Proxy][39m Replacing sessionId cd859d06-b6c3-4f0e-bd1a-0225dd43baff with aa5b7e55-b282-470e-afca-1030f7b0f3be
[35m[HTTP][39m [37m<-- GET /wd/hub/session/aa5b7e55-b282-470e-afca-1030f7b0f3be/element/00000000-0000-001c-ffff-ffff000000a5/location [39m[32m200[39m [90m83 ms - 78[39m
[35m[HTTP][39m [90m[39m
[35m[HTTP][39m [37m-->[39m [37mPOST[39m [37m/wd/hub/session/aa5b7e55-b282-470e-afca-1030f7b0f3be/timeouts[39m
[35m[HTTP][39m [90m{"implicit":30000}[39m
[35m[HTTP][39m [37m<-- POST /wd/hub/session/aa5b7e55-b282-470e-afca-1030f7b0f3be/timeouts [39m[32m200[39m [90m3 ms - 14[39m
[35m[HTTP][39m [90m[39m
[35m[HTTP][39m [37m-->[39m [37mPOST[39m [37m/wd/hub/session/aa5b7e55-b282-470e-afca-1030f7b0f3be/timeouts[39m
[35m[HTTP][39m [90m{"implicit":50}[39m
[35m[HTTP][39m [37m<-- POST /wd/hub/session/aa5b7e55-b282-470e-afca-1030f7b0f3be/timeouts [39m[32m200[39m [90m4 ms - 14[39m
[35m[HTTP][39m [90m[39m
[35m[HTTP][39m [37m-->[39m [37mGET[39m [37m/wd/hub/session/aa5b7e55-b282-470e-afca-1030f7b0f3be/window/rect[39m
[35m[HTTP][39m [90m{}[39m
[35m[HTTP][39m [37m<-- GET /wd/hub/session/aa5b7e55-b282-470e-afca-1030f7b0f3be/window/rect [39m[32m200[39m [90m29 ms - 50[39m
[35m[HTTP][39m [90m[39m
[35m[HTTP][39m [37m-->[39m [37mPOST[39m [37m/wd/hub/session/aa5b7e55-b282-470e-afca-1030f7b0f3be/elements[39m
[35m[HTTP][39m [90m{"using":"xpath","value":"//hierarchy/android.widget.FrameLayout[1]/android.widget.LinearLayout[1]/android.widget.FrameLayout[1]/android.widget.LinearLayout[1]/android.widget.FrameLayout[1]/android.view.ViewGroup[1]/android.widget.FrameLayout[1]/android.view.ViewGroup[1]/android.widget.ScrollView[1]/android.widget.LinearLayout[1]/android.widget.FrameLayout[2]/androidx.recyclerview.widget.RecyclerView[1]/androidx.cardview.widget.CardView[2]/android.view.ViewGroup[1]"}[39m
[35m[HTTP][39m [37m<-- POST /wd/hub/session/aa5b7e55-b282-470e-afca-1030f7b0f3be/elements [39m[32m200[39m [90m767 ms - 139[39m
[35m[HTTP][39m [90m[39m
[35m[HTTP][39m [37m-->[39m [37mGET[39m [37m/wd/hub/session/aa5b7e55-b282-470e-afca-1030f7b0f3be/element/00000000-0000-001c-ffff-ffff000000a2/location[39m
[35m[HTTP][39m [90m{}[39m
[35m[W3C (aa5b7e55)][39m Driver proxy active, passing request on via HTTP proxy
[35m[WD Proxy][39m Replacing sessionId cd859d06-b6c3-4f0e-bd1a-0225dd43baff with aa5b7e55-b282-470e-afca-1030f7b0f3be
[35m[HTTP][39m [37m<-- GET /wd/hub/session/aa5b7e55-b282-470e-afca-1030f7b0f3be/element/00000000-0000-001c-ffff-ffff000000a2/location [39m[32m200[39m [90m94 ms - 78[39m
[35m[HTTP][39m [90m[39m
[35m[HTTP][39m [37m-->[39m [37mPOST[39m [37m/wd/hub/session/aa5b7e55-b282-470e-afca-1030f7b0f3be/timeouts[39m
[35m[HTTP][39m [90m{"implicit":30000}[39m
[35m[HTTP][39m [37m<-- POST /wd/hub/session/aa5b7e55-b282-470e-afca-1030f7b0f3be/timeouts [39m[32m200[39m [90m4 ms - 14[39m
[35m[HTTP][39m [90m[39m
[35m[HTTP][39m [37m-->[39m [37mPOST[39m [37m/wd/hub/session/aa5b7e55-b282-470e-afca-1030f7b0f3be/timeouts[39m
[35m[HTTP][39m [90m{"implicit":50}[39m
[35m[HTTP][39m [37m<-- POST /wd/hub/session/aa5b7e55-b282-470e-afca-1030f7b0f3be/timeouts [39m[32m200[39m [90m3 ms - 14[39m
[35m[HTTP][39m [90m[39m
[35m[HTTP][39m [37m-->[39m [37mGET[39m [37m/wd/hub/session/aa5b7e55-b282-470e-afca-1030f7b0f3be/window/rect[39m
[35m[HTTP][39m [90m{}[39m
[35m[HTTP][39m [37m<-- GET /wd/hub/session/aa5b7e55-b282-470e-afca-1030f7b0f3be/window/rect [39m[32m200[39m [90m34 ms - 50[39m
[35m[HTTP][39m [90m[39m
[35m[HTTP][39m [37m-->[39m [37mPOST[39m [37m/wd/hub/session/aa5b7e55-b282-470e-afca-1030f7b0f3be/elements[39m
[35m[HTTP][39m [90m{"using":"xpath","value":"//hierarchy/android.widget.FrameLayout[1]/android.widget.LinearLayout[1]/android.widget.FrameLayout[1]/android.widget.LinearLayout[1]/android.widget.FrameLayout[1]/android.view.ViewGroup[1]/android.widget.FrameLayout[1]/android.view.ViewGroup[1]/android.widget.ScrollView[1]/android.widget.LinearLayout[1]/android.widget.FrameLayout[2]/androidx.recyclerview.widget.RecyclerView[1]/androidx.cardview.widget.CardView[1]/android.view.ViewGroup[1]"}[39m
[35m[HTTP][39m [37m<-- POST /wd/hub/session/aa5b7e55-b282-470e-afca-1030f7b0f3be/elements [39m[32m200[39m [90m1195 ms - 139[39m
[35m[HTTP][39m [90m[39m
[35m[HTTP][39m [37m-->[39m [37mGET[39m [37m/wd/hub/session/aa5b7e55-b282-470e-afca-1030f7b0f3be/element/00000000-0000-001c-ffff-ffff0000009f/location[39m
[35m[HTTP][39m [90m{}[39m
[35m[W3C (aa5b7e55)][39m Driver proxy active, passing request on via HTTP proxy
[35m[WD Proxy][39m Replacing sessionId cd859d06-b6c3-4f0e-bd1a-0225dd43baff with aa5b7e55-b282-470e-afca-1030f7b0f3be
[35m[HTTP][39m [37m<-- GET /wd/hub/session/aa5b7e55-b282-470e-afca-1030f7b0f3be/element/00000000-0000-001c-ffff-ffff0000009f/location [39m[32m200[39m [90m134 ms - 77[39m
[35m[HTTP][39m [90m[39m
[35m[HTTP][39m [37m-->[39m [37mPOST[39m [37m/wd/hub/session/aa5b7e55-b282-470e-afca-1030f7b0f3be/timeouts[39m
[35m[HTTP][39m [90m{"implicit":30000}[39m
[35m[HTTP][39m [37m<-- POST /wd/hub/session/aa5b7e55-b282-470e-afca-1030f7b0f3be/timeouts [39m[32m200[39m [90m4 ms - 14[39m
[35m[HTTP][39m [90m[39m
[35m[HTTP][39m [37m-->[39m [37mPOST[39m [37m/wd/hub/session/aa5b7e55-b282-470e-afca-1030f7b0f3be/timeouts[39m
[35m[HTTP][39m [90m{"implicit":50}[39m
[35m[HTTP][39m [37m<-- POST /wd/hub/session/aa5b7e55-b282-470e-afca-1030f7b0f3be/timeouts [39m[32m200[39m [90m3 ms - 14[39m
[35m[HTTP][39m [90m[39m
[35m[HTTP][39m [37m-->[39m [37mGET[39m [37m/wd/hub/session/aa5b7e55-b282-470e-afca-1030f7b0f3be/window/rect[39m
[35m[HTTP][39m [90m{}[39m
[35m[HTTP][39m [37m<-- GET /wd/hub/session/aa5b7e55-b282-470e-afca-1030f7b0f3be/window/rect [39m[32m200[39m [90m31 ms - 50[39m
[35m[HTTP][39m [90m[39m
[35m[HTTP][39m [37m-->[39m [37mPOST[39m [37m/wd/hub/session/aa5b7e55-b282-470e-afca-1030f7b0f3be/elements[39m
[35m[HTTP][39m [90m{"using":"xpath","value":"//hierarchy/android.widget.FrameLayout[1]/android.widget.LinearLayout[1]/android.widget.FrameLayout[1]/android.widget.LinearLayout[1]/android.widget.FrameLayout[1]/android.view.ViewGroup[1]/android.widget.FrameLayout[1]/android.view.ViewGroup[1]/android.widget.ScrollView[1]/android.widget.LinearLayout[1]/android.widget.FrameLayout[2]/androidx.recyclerview.widget.RecyclerView[1]/androidx.cardview.widget.CardView[3]/android.view.ViewGroup[1]"}[39m
[35m[HTTP][39m [37m<-- POST /wd/hub/session/aa5b7e55-b282-470e-afca-1030f7b0f3be/elements [39m[32m200[39m [90m746 ms - 139[39m
[35m[HTTP][39m [90m[39m
[35m[HTTP][39m [37m-->[39m [37mGET[39m [37m/wd/hub/session/aa5b7e55-b282-470e-afca-1030f7b0f3be/element/00000000-0000-001c-ffff-ffff000000a5/location[39m
[35m[HTTP][39m [90m{}[39m
[35m[W3C (aa5b7e55)][39m Driver proxy active, passing request on via HTTP proxy
[35m[WD Proxy][39m Replacing sessionId cd859d06-b6c3-4f0e-bd1a-0225dd43baff with aa5b7e55-b282-470e-afca-1030f7b0f3be
[35m[HTTP][39m [37m<-- GET /wd/hub/session/aa5b7e55-b282-470e-afca-1030f7b0f3be/element/00000000-0000-001c-ffff-ffff000000a5/location [39m[32m200[39m [90m86 ms - 78[39m
[35m[HTTP][39m [90m[39m
[35m[HTTP][39m [37m-->[39m [37mPOST[39m [37m/wd/hub/session/aa5b7e55-b282-470e-afca-1030f7b0f3be/timeouts[39m
[35m[HTTP][39m [90m{"implicit":30000}[39m
[35m[HTTP][39m [37m<-- POST /wd/hub/session/aa5b7e55-b282-470e-afca-1030f7b0f3be/timeouts [39m[32m200[39m [90m3 ms - 14[39m
[35m[HTTP][39m [90m[39m
[35m[HTTP][39m [37m-->[39m [37mPOST[39m [37m/wd/hub/session/aa5b7e55-b282-470e-afca-1030f7b0f3be/timeouts[39m
[35m[HTTP][39m [90m{"implicit":50}[39m
[35m[HTTP][39m [37m<-- POST /wd/hub/session/aa5b7e55-b282-470e-afca-1030f7b0f3be/timeouts [39m[32m200[39m [90m3 ms - 14[39m
[35m[HTTP][39m [90m[39m
[35m[HTTP][39m [37m-->[39m [37mGET[39m [37m/wd/hub/session/aa5b7e55-b282-470e-afca-1030f7b0f3be/window/rect[39m
[35m[HTTP][39m [90m{}[39m
[35m[HTTP][39m [37m<-- GET /wd/hub/session/aa5b7e55-b282-470e-afca-1030f7b0f3be/window/rect [39m[32m200[39m [90m34 ms - 50[39m
[35m[HTTP][39m [90m[39m
[35m[HTTP][39m [37m-->[39m [37mPOST[39m [37m/wd/hub/session/aa5b7e55-b282-470e-afca-1030f7b0f3be/elements[39m
[35m[HTTP][39m [90m{"using":"id","value":"id.binar.fp.secondhand:id/fab"}[39m
[35m[HTTP][39m [37m<-- POST /wd/hub/session/aa5b7e55-b282-470e-afca-1030f7b0f3be/elements [39m[32m200[39m [90m1113 ms - 139[39m
[35m[HTTP][39m [90m[39m
[35m[HTTP][39m [37m-->[39m [37mGET[39m [37m/wd/hub/session/aa5b7e55-b282-470e-afca-1030f7b0f3be/element/00000000-0000-001c-ffff-ffff00000008/location[39m
[35m[HTTP][39m [90m{}[39m
[35m[W3C (aa5b7e55)][39m Driver proxy active, passing request on via HTTP proxy
[35m[WD Proxy][39m Replacing sessionId cd859d06-b6c3-4f0e-bd1a-0225dd43baff with aa5b7e55-b282-470e-afca-1030f7b0f3be
[35m[HTTP][39m [37m<-- GET /wd/hub/session/aa5b7e55-b282-470e-afca-1030f7b0f3be/element/00000000-0000-001c-ffff-ffff00000008/location [39m[32m200[39m [90m89 ms - 79[39m
[35m[HTTP][39m [90m[39m
[35m[HTTP][39m [37m-->[39m [37mPOST[39m [37m/wd/hub/session/aa5b7e55-b282-470e-afca-1030f7b0f3be/timeouts[39m
[35m[HTTP][39m [90m{"implicit":30000}[39m
[35m[HTTP][39m [37m<-- POST /wd/hub/session/aa5b7e55-b282-470e-afca-1030f7b0f3be/timeouts [39m[32m200[39m [90m3 ms - 14[39m
[35m[HTTP][39m [90m[39m
[35m[HTTP][39m [37m-->[39m [37mPOST[39m [37m/wd/hub/session/aa5b7e55-b282-470e-afca-1030f7b0f3be/timeouts[39m
[35m[HTTP][39m [90m{"implicit":50}[39m
[35m[HTTP][39m [37m<-- POST /wd/hub/session/aa5b7e55-b282-470e-afca-1030f7b0f3be/timeouts [39m[32m200[39m [90m2 ms - 14[39m
[35m[HTTP][39m [90m[39m
[35m[HTTP][39m [37m-->[39m [37mGET[39m [37m/wd/hub/session/aa5b7e55-b282-470e-afca-1030f7b0f3be/window/rect[39m
[35m[HTTP][39m [90m{}[39m
[35m[HTTP][39m [37m<-- GET /wd/hub/session/aa5b7e55-b282-470e-afca-1030f7b0f3be/window/rect [39m[32m200[39m [90m30 ms - 50[39m
[35m[HTTP][39m [90m[39m
[35m[HTTP][39m [37m-->[39m [37mPOST[39m [37m/wd/hub/session/aa5b7e55-b282-470e-afca-1030f7b0f3be/elements[39m
[35m[HTTP][39m [90m{"using":"id","value":"id.binar.fp.secondhand:id/navigation_profile"}[39m
[35m[HTTP][39m [37m<-- POST /wd/hub/session/aa5b7e55-b282-470e-afca-1030f7b0f3be/elements [39m[32m200[39m [90m433 ms - 139[39m
[35m[HTTP][39m [90m[39m
[35m[HTTP][39m [37m-->[39m [37mGET[39m [37m/wd/hub/session/aa5b7e55-b282-470e-afca-1030f7b0f3be/element/00000000-0000-001c-ffff-ffff00000010/location[39m
[35m[HTTP][39m [90m{}[39m
[35m[W3C (aa5b7e55)][39m Driver proxy active, passing request on via HTTP proxy
[35m[WD Proxy][39m Replacing sessionId cd859d06-b6c3-4f0e-bd1a-0225dd43baff with aa5b7e55-b282-470e-afca-1030f7b0f3be
[35m[HTTP][39m [37m<-- GET /wd/hub/session/aa5b7e55-b282-470e-afca-1030f7b0f3be/element/00000000-0000-001c-ffff-ffff00000010/location [39m[32m200[39m [90m84 ms - 80[39m
[35m[HTTP][39m [90m[39m
[35m[HTTP][39m [37m-->[39m [37mPOST[39m [37m/wd/hub/session/aa5b7e55-b282-470e-afca-1030f7b0f3be/timeouts[39m
[35m[HTTP][39m [90m{"implicit":30000}[39m
[35m[HTTP][39m [37m<-- POST /wd/hub/session/aa5b7e55-b282-470e-afca-1030f7b0f3be/timeouts [39m[32m200[39m [90m3 ms - 14[39m
[35m[HTTP][39m [90m[39m
[35m[HTTP][39m [37m-->[39m [37mPOST[39m [37m/wd/hub/session/aa5b7e55-b282-470e-afca-1030f7b0f3be/timeouts[39m
[35m[HTTP][39m [90m{"implicit":50}[39m
[35m[HTTP][39m [37m<-- POST /wd/hub/session/aa5b7e55-b282-470e-afca-1030f7b0f3be/timeouts [39m[32m200[39m [90m3 ms - 14[39m
[35m[HTTP][39m [90m[39m
[35m[HTTP][39m [37m-->[39m [37mGET[39m [37m/wd/hub/session/aa5b7e55-b282-470e-afca-1030f7b0f3be/window/rect[39m
[35m[HTTP][39m [90m{}[39m
[35m[HTTP][39m [37m<-- GET /wd/hub/session/aa5b7e55-b282-470e-afca-1030f7b0f3be/window/rect [39m[32m200[39m [90m28 ms - 50[39m
[35m[HTTP][39m [90m[39m
[35m[HTTP][39m [37m-->[39m [37mPOST[39m [37m/wd/hub/session/aa5b7e55-b282-470e-afca-1030f7b0f3be/elements[39m
[35m[HTTP][39m [90m{"using":"id","value":"id.binar.fp.secondhand:id/navigation_home"}[39m
[35m[HTTP][39m [37m<-- POST /wd/hub/session/aa5b7e55-b282-470e-afca-1030f7b0f3be/elements [39m[32m200[39m [90m444 ms - 139[39m
[35m[HTTP][39m [90m[39m
[35m[HTTP][39m [37m-->[39m [37mGET[39m [37m/wd/hub/session/aa5b7e55-b282-470e-afca-1030f7b0f3be/element/00000000-0000-001c-ffff-ffff0000000c/location[39m
[35m[HTTP][39m [90m{}[39m
[35m[W3C (aa5b7e55)][39m Driver proxy active, passing request on via HTTP proxy
[35m[WD Proxy][39m Replacing sessionId cd859d06-b6c3-4f0e-bd1a-0225dd43baff with aa5b7e55-b282-470e-afca-1030f7b0f3be
[35m[HTTP][39m [37m<-- GET /wd/hub/session/aa5b7e55-b282-470e-afca-1030f7b0f3be/element/00000000-0000-001c-ffff-ffff0000000c/location [39m[32m200[39m [90m111 ms - 77[39m
[35m[HTTP][39m [90m[39m
[35m[HTTP][39m [37m-->[39m [37mPOST[39m [37m/wd/hub/session/aa5b7e55-b282-470e-afca-1030f7b0f3be/timeouts[39m
[35m[HTTP][39m [90m{"implicit":30000}[39m
[35m[HTTP][39m [37m<-- POST /wd/hub/session/aa5b7e55-b282-470e-afca-1030f7b0f3be/timeouts [39m[32m200[39m [90m3 ms - 14[39m
[35m[HTTP][39m [90m[39m
[35m[HTTP][39m [37m-->[39m [37mPOST[39m [37m/wd/hub/session/aa5b7e55-b282-470e-afca-1030f7b0f3be/timeouts[39m
[35m[HTTP][39m [90m{"implicit":50}[39m
[35m[HTTP][39m [37m<-- POST /wd/hub/session/aa5b7e55-b282-470e-afca-1030f7b0f3be/timeouts [39m[32m200[39m [90m3 ms - 14[39m
[35m[HTTP][39m [90m[39m
[35m[HTTP][39m [37m-->[39m [37mGET[39m [37m/wd/hub/session/aa5b7e55-b282-470e-afca-1030f7b0f3be/window/rect[39m
[35m[HTTP][39m [90m{}[39m
[35m[HTTP][39m [37m<-- GET /wd/hub/session/aa5b7e55-b282-470e-afca-1030f7b0f3be/window/rect [39m[32m200[39m [90m32 ms - 50[39m
[35m[HTTP][39m [90m[39m
[35m[HTTP][39m [37m-->[39m [37mPOST[39m [37m/wd/hub/session/aa5b7e55-b282-470e-afca-1030f7b0f3be/elements[39m
[35m[HTTP][39m [90m{"using":"id","value":"id.binar.fp.secondhand:id/navigation_notification"}[39m
[35m[HTTP][39m [37m<-- POST /wd/hub/session/aa5b7e55-b282-470e-afca-1030f7b0f3be/elements [39m[32m200[39m [90m968 ms - 139[39m
[35m[HTTP][39m [90m[39m
[35m[HTTP][39m [37m-->[39m [37mGET[39m [37m/wd/hub/session/aa5b7e55-b282-470e-afca-1030f7b0f3be/element/00000000-0000-001c-ffff-ffff0000000d/location[39m
[35m[HTTP][39m [90m{}[39m
[35m[W3C (aa5b7e55)][39m Driver proxy active, passing request on via HTTP proxy
[35m[WD Proxy][39m Replacing sessionId cd859d06-b6c3-4f0e-bd1a-0225dd43baff with aa5b7e55-b282-470e-afca-1030f7b0f3be
[35m[HTTP][39m [37m<-- GET /wd/hub/session/aa5b7e55-b282-470e-afca-1030f7b0f3be/element/00000000-0000-001c-ffff-ffff0000000d/location [39m[32m200[39m [90m113 ms - 79[39m
[35m[HTTP][39m [90m[39m
[35m[HTTP][39m [37m-->[39m [37mPOST[39m [37m/wd/hub/session/aa5b7e55-b282-470e-afca-1030f7b0f3be/timeouts[39m
[35m[HTTP][39m [90m{"implicit":30000}[39m
[35m[HTTP][39m [37m<-- POST /wd/hub/session/aa5b7e55-b282-470e-afca-1030f7b0f3be/timeouts [39m[32m200[39m [90m3 ms - 14[39m
[35m[HTTP][39m [90m[39m
[35m[HTTP][39m [37m-->[39m [37mPOST[39m [37m/wd/hub/session/aa5b7e55-b282-470e-afca-1030f7b0f3be/timeouts[39m
[35m[HTTP][39m [90m{"implicit":50}[39m
[35m[HTTP][39m [37m<-- POST /wd/hub/session/aa5b7e55-b282-470e-afca-1030f7b0f3be/timeouts [39m[32m200[39m [90m3 ms - 14[39m
[35m[HTTP][39m [90m[39m
[35m[HTTP][39m [37m-->[39m [37mGET[39m [37m/wd/hub/session/aa5b7e55-b282-470e-afca-1030f7b0f3be/window/rect[39m
[35m[HTTP][39m [90m{}[39m
[35m[HTTP][39m [37m<-- GET /wd/hub/session/aa5b7e55-b282-470e-afca-1030f7b0f3be/window/rect [39m[32m200[39m [90m27 ms - 50[39m
[35m[HTTP][39m [90m[39m
[35m[HTTP][39m [37m-->[39m [37mPOST[39m [37m/wd/hub/session/aa5b7e55-b282-470e-afca-1030f7b0f3be/elements[39m
[35m[HTTP][39m [90m{"using":"id","value":"id.binar.fp.secondhand:id/navigation_history"}[39m
[35m[HTTP][39m [37m<-- POST /wd/hub/session/aa5b7e55-b282-470e-afca-1030f7b0f3be/elements [39m[32m200[39m [90m398 ms - 139[39m
[35m[HTTP][39m [90m[39m
[35m[HTTP][39m [37m-->[39m [37mGET[39m [37m/wd/hub/session/aa5b7e55-b282-470e-afca-1030f7b0f3be/element/00000000-0000-001c-ffff-ffff0000000f/location[39m
[35m[HTTP][39m [90m{}[39m
[35m[W3C (aa5b7e55)][39m Driver proxy active, passing request on via HTTP proxy
[35m[WD Proxy][39m Replacing sessionId cd859d06-b6c3-4f0e-bd1a-0225dd43baff with aa5b7e55-b282-470e-afca-1030f7b0f3be
[35m[HTTP][39m [37m<-- GET /wd/hub/session/aa5b7e55-b282-470e-afca-1030f7b0f3be/element/00000000-0000-001c-ffff-ffff0000000f/location [39m[32m200[39m [90m114 ms - 79[39m
[35m[HTTP][39m [90m[39m
[35m[HTTP][39m [37m-->[39m [37mPOST[39m [37m/wd/hub/session/aa5b7e55-b282-470e-afca-1030f7b0f3be/timeouts[39m
[35m[HTTP][39m [90m{"implicit":30000}[39m
[35m[HTTP][39m [37m<-- POST /wd/hub/session/aa5b7e55-b282-470e-afca-1030f7b0f3be/timeouts [39m[32m200[39m [90m2 ms - 14[39m
[35m[HTTP][39m [90m[39m
[35m[HTTP][39m [37m-->[39m [37mPOST[39m [37m/wd/hub/session/aa5b7e55-b282-470e-afca-1030f7b0f3be/timeouts[39m
[35m[HTTP][39m [90m{"implicit":50}[39m
[35m[HTTP][39m [37m<-- POST /wd/hub/session/aa5b7e55-b282-470e-afca-1030f7b0f3be/timeouts [39m[32m200[39m [90m3 ms - 14[39m
[35m[HTTP][39m [90m[39m
[35m[HTTP][39m [37m-->[39m [37mGET[39m [37m/wd/hub/session/aa5b7e55-b282-470e-afca-1030f7b0f3be/window/rect[39m
[35m[HTTP][39m [90m{}[39m
[35m[HTTP][39m [37m<-- GET /wd/hub/session/aa5b7e55-b282-470e-afca-1030f7b0f3be/window/rect [39m[32m200[39m [90m53 ms - 50[39m
[35m[HTTP][39m [90m[39m
[35m[HTTP][39m [37m-->[39m [37mPOST[39m [37m/wd/hub/session/aa5b7e55-b282-470e-afca-1030f7b0f3be/elements[39m
[35m[HTTP][39m [90m{"using":"id","value":"id.binar.fp.secondhand:id/tv_category"}[39m
[35m[HTTP][39m [37m<-- POST /wd/hub/session/aa5b7e55-b282-470e-afca-1030f7b0f3be/elements [39m[32m200[39m [90m332 ms - 523[39m
[35m[HTTP][39m [90m[39m
[35m[HTTP][39m [37m-->[39m [37mGET[39m [37m/wd/hub/session/aa5b7e55-b282-470e-afca-1030f7b0f3be/element/00000000-0000-001c-ffff-ffff00000044/location[39m
[35m[HTTP][39m [90m{}[39m
[35m[W3C (aa5b7e55)][39m Driver proxy active, passing request on via HTTP proxy
[35m[WD Proxy][39m Replacing sessionId cd859d06-b6c3-4f0e-bd1a-0225dd43baff with aa5b7e55-b282-470e-afca-1030f7b0f3be
[35m[HTTP][39m [37m<-- GET /wd/hub/session/aa5b7e55-b282-470e-afca-1030f7b0f3be/element/00000000-0000-001c-ffff-ffff00000044/location [39m[32m200[39m [90m83 ms - 77[39m
[35m[HTTP][39m [90m[39m
[35m[HTTP][39m [37m-->[39m [37mPOST[39m [37m/wd/hub/session/aa5b7e55-b282-470e-afca-1030f7b0f3be/timeouts[39m
[35m[HTTP][39m [90m{"implicit":30000}[39m
[35m[HTTP][39m [37m<-- POST /wd/hub/session/aa5b7e55-b282-470e-afca-1030f7b0f3be/timeouts [39m[32m200[39m [90m4 ms - 14[39m
[35m[HTTP][39m [90m[39m
[35m[HTTP][39m [37m-->[39m [37mPOST[39m [37m/wd/hub/session/aa5b7e55-b282-470e-afca-1030f7b0f3be/timeouts[39m
[35m[HTTP][39m [90m{"implicit":50}[39m
[35m[HTTP][39m [37m<-- POST /wd/hub/session/aa5b7e55-b282-470e-afca-1030f7b0f3be/timeouts [39m[32m200[39m [90m3 ms - 14[39m
[35m[HTTP][39m [90m[39m
[35m[HTTP][39m [37m-->[39m [37mGET[39m [37m/wd/hub/session/aa5b7e55-b282-470e-afca-1030f7b0f3be/window/rect[39m
[35m[HTTP][39m [90m{}[39m
[35m[HTTP][39m [37m<-- GET /wd/hub/session/aa5b7e55-b282-470e-afca-1030f7b0f3be/window/rect [39m[32m200[39m [90m28 ms - 50[39m
[35m[HTTP][39m [90m[39m
[35m[HTTP][39m [37m-->[39m [37mPOST[39m [37m/wd/hub/session/aa5b7e55-b282-470e-afca-1030f7b0f3be/elements[39m
[35m[HTTP][39m [90m{"using":"id","value":"id.binar.fp.secondhand:id/navigation_profile"}[39m
[35m[HTTP][39m [37m<-- POST /wd/hub/session/aa5b7e55-b282-470e-afca-1030f7b0f3be/elements [39m[32m200[39m [90m464 ms - 139[39m
[35m[HTTP][39m [90m[39m
[35m[HTTP][39m [37m-->[39m [37mGET[39m [37m/wd/hub/session/aa5b7e55-b282-470e-afca-1030f7b0f3be/element/00000000-0000-001c-ffff-ffff00000010/location[39m
[35m[HTTP][39m [90m{}[39m
[35m[W3C (aa5b7e55)][39m Driver proxy active, passing request on via HTTP proxy
[35m[WD Proxy][39m Replacing sessionId cd859d06-b6c3-4f0e-bd1a-0225dd43baff with aa5b7e55-b282-470e-afca-1030f7b0f3be
[35m[HTTP][39m [37m<-- GET /wd/hub/session/aa5b7e55-b282-470e-afca-1030f7b0f3be/element/00000000-0000-001c-ffff-ffff00000010/location [39m[32m200[39m [90m105 ms - 80[39m
[35m[HTTP][39m [90m[39m
[35m[HTTP][39m [37m-->[39m [37mPOST[39m [37m/wd/hub/session/aa5b7e55-b282-470e-afca-1030f7b0f3be/timeouts[39m
[35m[HTTP][39m [90m{"implicit":30000}[39m
[35m[HTTP][39m [37m<-- POST /wd/hub/session/aa5b7e55-b282-470e-afca-1030f7b0f3be/timeouts [39m[32m200[39m [90m2 ms - 14[39m
[35m[HTTP][39m [90m[39m
[35m[HTTP][39m [37m-->[39m [37mPOST[39m [37m/wd/hub/session/aa5b7e55-b282-470e-afca-1030f7b0f3be/timeouts[39m
[35m[HTTP][39m [90m{"implicit":50}[39m
[35m[HTTP][39m [37m<-- POST /wd/hub/session/aa5b7e55-b282-470e-afca-1030f7b0f3be/timeouts [39m[32m200[39m [90m4 ms - 14[39m
[35m[HTTP][39m [90m[39m
[35m[HTTP][39m [37m-->[39m [37mGET[39m [37m/wd/hub/session/aa5b7e55-b282-470e-afca-1030f7b0f3be/window/rect[39m
[35m[HTTP][39m [90m{}[39m
[35m[HTTP][39m [37m<-- GET /wd/hub/session/aa5b7e55-b282-470e-afca-1030f7b0f3be/window/rect [39m[32m200[39m [90m36 ms - 50[39m
[35m[HTTP][39m [90m[39m
[35m[HTTP][39m [37m-->[39m [37mPOST[39m [37m/wd/hub/session/aa5b7e55-b282-470e-afca-1030f7b0f3be/elements[39m
[35m[HTTP][39m [90m{"using":"id","value":"id.binar.fp.secondhand:id/navigation_profile"}[39m
[35m[HTTP][39m [37m<-- POST /wd/hub/session/aa5b7e55-b282-470e-afca-1030f7b0f3be/elements [39m[32m200[39m [90m391 ms - 139[39m
[35m[HTTP][39m [90m[39m
[35m[HTTP][39m [37m-->[39m [37mGET[39m [37m/wd/hub/session/aa5b7e55-b282-470e-afca-1030f7b0f3be/element/00000000-0000-001c-ffff-ffff00000010/location[39m
[35m[HTTP][39m [90m{}[39m
[35m[W3C (aa5b7e55)][39m Driver proxy active, passing request on via HTTP proxy
[35m[WD Proxy][39m Replacing sessionId cd859d06-b6c3-4f0e-bd1a-0225dd43baff with aa5b7e55-b282-470e-afca-1030f7b0f3be
[35m[HTTP][39m [37m<-- GET /wd/hub/session/aa5b7e55-b282-470e-afca-1030f7b0f3be/element/00000000-0000-001c-ffff-ffff00000010/location [39m[32m200[39m [90m49 ms - 80[39m
[35m[HTTP][39m [90m[39m
[35m[HTTP][39m [37m-->[39m [37mPOST[39m [37m/wd/hub/session/aa5b7e55-b282-470e-afca-1030f7b0f3be/timeouts[39m
[35m[HTTP][39m [90m{"implicit":30000}[39m
[35m[HTTP][39m [37m<-- POST /wd/hub/session/aa5b7e55-b282-470e-afca-1030f7b0f3be/timeouts [39m[32m200[39m [90m3 ms - 14[39m
[35m[HTTP][39m [90m[39m
[35m[HTTP][39m [37m-->[39m [37mPOST[39m [37m/wd/hub/session/aa5b7e55-b282-470e-afca-1030f7b0f3be/element/00000000-0000-001c-ffff-ffff00000010/click[39m
[35m[HTTP][39m [90m{"id":"00000000-0000-001c-ffff-ffff00000010"}[39m
[35m[HTTP][39m [37m<-- POST /wd/hub/session/aa5b7e55-b282-470e-afca-1030f7b0f3be/element/00000000-0000-001c-ffff-ffff00000010/click [39m[32m200[39m [90m163 ms - 14[39m
[35m[HTTP][39m [90m[39m
[35m[HTTP][39m [37m-->[39m [37mPOST[39m [37m/wd/hub/session/aa5b7e55-b282-470e-afca-1030f7b0f3be/timeouts[39m
[35m[HTTP][39m [90m{"implicit":50}[39m
[35m[HTTP][39m [37m<-- POST /wd/hub/session/aa5b7e55-b282-470e-afca-1030f7b0f3be/timeouts [39m[32m200[39m [90m3 ms - 14[39m
[35m[HTTP][39m [90m[39m
[35m[HTTP][39m [37m-->[39m [37mGET[39m [37m/wd/hub/session/aa5b7e55-b282-470e-afca-1030f7b0f3be/window/rect[39m
[35m[HTTP][39m [90m{}[39m
[35m[HTTP][39m [37m<-- GET /wd/hub/session/aa5b7e55-b282-470e-afca-1030f7b0f3be/window/rect [39m[32m200[39m [90m27 ms - 50[39m
[35m[HTTP][39m [90m[39m
[35m[HTTP][39m [37m-->[39m [37mPOST[39m [37m/wd/hub/session/aa5b7e55-b282-470e-afca-1030f7b0f3be/elements[39m
[35m[HTTP][39m [90m{"using":"id","value":"id.binar.fp.secondhand:id/tv_title_page"}[39m
[35m[HTTP][39m [37m<-- POST /wd/hub/session/aa5b7e55-b282-470e-afca-1030f7b0f3be/elements [39m[32m200[39m [90m297 ms - 139[39m
[35m[HTTP][39m [90m[39m
[35m[HTTP][39m [37m-->[39m [37mGET[39m [37m/wd/hub/session/aa5b7e55-b282-470e-afca-1030f7b0f3be/element/00000000-0000-001c-ffff-ffff00000206/location[39m
[35m[HTTP][39m [90m{}[39m
[35m[W3C (aa5b7e55)][39m Driver proxy active, passing request on via HTTP proxy
[35m[WD Proxy][39m Replacing sessionId cd859d06-b6c3-4f0e-bd1a-0225dd43baff with aa5b7e55-b282-470e-afca-1030f7b0f3be
[35m[HTTP][39m [37m<-- GET /wd/hub/session/aa5b7e55-b282-470e-afca-1030f7b0f3be/element/00000000-0000-001c-ffff-ffff00000206/location [39m[32m200[39m [90m407 ms - 77[39m
[35m[HTTP][39m [90m[39m
[35m[HTTP][39m [37m-->[39m [37mPOST[39m [37m/wd/hub/session/aa5b7e55-b282-470e-afca-1030f7b0f3be/timeouts[39m
[35m[HTTP][39m [90m{"implicit":30000}[39m
[35m[HTTP][39m [37m<-- POST /wd/hub/session/aa5b7e55-b282-470e-afca-1030f7b0f3be/timeouts [39m[32m200[39m [90m3 ms - 14[39m
[35m[HTTP][39m [90m[39m
[35m[HTTP][39m [37m-->[39m [37mGET[39m [37m/wd/hub/session/aa5b7e55-b282-470e-afca-1030f7b0f3be/element/00000000-0000-001c-ffff-ffff00000206/displayed[39m
[35m[HTTP][39m [90m{}[39m
[35m[HTTP][39m [37m<-- GET /wd/hub/session/aa5b7e55-b282-470e-afca-1030f7b0f3be/element/00000000-0000-001c-ffff-ffff00000206/displayed [39m[32m200[39m [90m70 ms - 14[39m
[35m[HTTP][39m [90m[39m
[35m[HTTP][39m [37m-->[39m [37mPOST[39m [37m/wd/hub/session/aa5b7e55-b282-470e-afca-1030f7b0f3be/timeouts[39m
[35m[HTTP][39m [90m{"implicit":50}[39m
[35m[HTTP][39m [37m<-- POST /wd/hub/session/aa5b7e55-b282-470e-afca-1030f7b0f3be/timeouts [39m[32m200[39m [90m4 ms - 14[39m
[35m[HTTP][39m [90m[39m
[35m[HTTP][39m [37m-->[39m [37mGET[39m [37m/wd/hub/session/aa5b7e55-b282-470e-afca-1030f7b0f3be/window/rect[39m
[35m[HTTP][39m [90m{}[39m
[35m[HTTP][39m [37m<-- GET /wd/hub/session/aa5b7e55-b282-470e-afca-1030f7b0f3be/window/rect [39m[32m200[39m [90m44 ms - 50[39m
[35m[HTTP][39m [90m[39m
[35m[HTTP][39m [37m-->[39m [37mPOST[39m [37m/wd/hub/session/aa5b7e55-b282-470e-afca-1030f7b0f3be/elements[39m
[35m[HTTP][39m [90m{"using":"xpath","value":"//hierarchy/android.widget.FrameLayout[1]/android.widget.LinearLayout[1]/android.widget.FrameLayout[1]/android.widget.LinearLayout[1]/android.widget.FrameLayout[1]/android.view.ViewGroup[1]/android.widget.FrameLayout[1]/android.view.ViewGroup[1]/android.widget.ScrollView[1]/android.view.ViewGroup[1]/android.widget.Button[1]"}[39m
[35m[HTTP][39m [37m<-- POST /wd/hub/session/aa5b7e55-b282-470e-afca-1030f7b0f3be/elements [39m[32m200[39m [90m315 ms - 139[39m
[35m[HTTP][39m [90m[39m
[35m[HTTP][39m [37m-->[39m [37mGET[39m [37m/wd/hub/session/aa5b7e55-b282-470e-afca-1030f7b0f3be/element/00000000-0000-001c-ffff-ffff0000021d/location[39m
[35m[HTTP][39m [90m{}[39m
[35m[W3C (aa5b7e55)][39m Driver proxy active, passing request on via HTTP proxy
[35m[WD Proxy][39m Replacing sessionId cd859d06-b6c3-4f0e-bd1a-0225dd43baff with aa5b7e55-b282-470e-afca-1030f7b0f3be
[35m[HTTP][39m [37m<-- GET /wd/hub/session/aa5b7e55-b282-470e-afca-1030f7b0f3be/element/00000000-0000-001c-ffff-ffff0000021d/location [39m[32m200[39m [90m65 ms - 77[39m
[35m[HTTP][39m [90m[39m
[35m[HTTP][39m [37m-->[39m [37mPOST[39m [37m/wd/hub/session/aa5b7e55-b282-470e-afca-1030f7b0f3be/timeouts[39m
[35m[HTTP][39m [90m{"implicit":30000}[39m
[35m[HTTP][39m [37m<-- POST /wd/hub/session/aa5b7e55-b282-470e-afca-1030f7b0f3be/timeouts [39m[32m200[39m [90m3 ms - 14[39m
[35m[HTTP][39m [90m[39m
[35m[HTTP][39m [37m-->[39m [37mGET[39m [37m/wd/hub/session/aa5b7e55-b282-470e-afca-1030f7b0f3be/element/00000000-0000-001c-ffff-ffff0000021d/displayed[39m
[35m[HTTP][39m [90m{}[39m
[35m[HTTP][39m [37m<-- GET /wd/hub/session/aa5b7e55-b282-470e-afca-1030f7b0f3be/element/00000000-0000-001c-ffff-ffff0000021d/displayed [39m[32m200[39m [90m63 ms - 14[39m
[35m[HTTP][39m [90m[39m
[35m[HTTP][39m [37m-->[39m [37mPOST[39m [37m/wd/hub/session/aa5b7e55-b282-470e-afca-1030f7b0f3be/timeouts[39m
[35m[HTTP][39m [90m{"implicit":50}[39m
[35m[HTTP][39m [37m<-- POST /wd/hub/session/aa5b7e55-b282-470e-afca-1030f7b0f3be/timeouts [39m[32m200[39m [90m3 ms - 14[39m
[35m[HTTP][39m [90m[39m
[35m[HTTP][39m [37m-->[39m [37mGET[39m [37m/wd/hub/session/aa5b7e55-b282-470e-afca-1030f7b0f3be/window/rect[39m
[35m[HTTP][39m [90m{}[39m
[35m[HTTP][39m [37m<-- GET /wd/hub/session/aa5b7e55-b282-470e-afca-1030f7b0f3be/window/rect [39m[32m200[39m [90m67 ms - 50[39m
[35m[HTTP][39m [90m[39m
[35m[HTTP][39m [37m-->[39m [37mPOST[39m [37m/wd/hub/session/aa5b7e55-b282-470e-afca-1030f7b0f3be/elements[39m
[35m[HTTP][39m [90m{"using":"xpath","value":"//hierarchy/android.widget.FrameLayout[1]/android.widget.LinearLayout[1]/android.widget.FrameLayout[1]/android.widget.LinearLayout[1]/android.widget.FrameLayout[1]/android.view.ViewGroup[1]/android.widget.FrameLayout[1]/android.view.ViewGroup[1]/android.widget.ScrollView[1]/android.view.ViewGroup[1]/android.widget.Button[1]"}[39m
[35m[HTTP][39m [37m<-- POST /wd/hub/session/aa5b7e55-b282-470e-afca-1030f7b0f3be/elements [39m[32m200[39m [90m565 ms - 139[39m
[35m[HTTP][39m [90m[39m
[35m[HTTP][39m [37m-->[39m [37mGET[39m [37m/wd/hub/session/aa5b7e55-b282-470e-afca-1030f7b0f3be/element/00000000-0000-001c-ffff-ffff0000021d/location[39m
[35m[HTTP][39m [90m{}[39m
[35m[W3C (aa5b7e55)][39m Driver proxy active, passing request on via HTTP proxy
[35m[WD Proxy][39m Replacing sessionId cd859d06-b6c3-4f0e-bd1a-0225dd43baff with aa5b7e55-b282-470e-afca-1030f7b0f3be
[35m[HTTP][39m [37m<-- GET /wd/hub/session/aa5b7e55-b282-470e-afca-1030f7b0f3be/element/00000000-0000-001c-ffff-ffff0000021d/location [39m[32m200[39m [90m218 ms - 77[39m
[35m[HTTP][39m [90m[39m
[35m[HTTP][39m [37m-->[39m [37mPOST[39m [37m/wd/hub/session/aa5b7e55-b282-470e-afca-1030f7b0f3be/timeouts[39m
[35m[HTTP][39m [90m{"implicit":30000}[39m
[35m[HTTP][39m [37m<-- POST /wd/hub/session/aa5b7e55-b282-470e-afca-1030f7b0f3be/timeouts [39m[32m200[39m [90m3 ms - 14[39m
[35m[HTTP][39m [90m[39m
[35m[HTTP][39m [37m-->[39m [37mPOST[39m [37m/wd/hub/session/aa5b7e55-b282-470e-afca-1030f7b0f3be/timeouts[39m
[35m[HTTP][39m [90m{"implicit":50}[39m
[35m[HTTP][39m [37m<-- POST /wd/hub/session/aa5b7e55-b282-470e-afca-1030f7b0f3be/timeouts [39m[32m200[39m [90m2 ms - 14[39m
[35m[HTTP][39m [90m[39m
[35m[HTTP][39m [37m-->[39m [37mGET[39m [37m/wd/hub/session/aa5b7e55-b282-470e-afca-1030f7b0f3be/window/rect[39m
[35m[HTTP][39m [90m{}[39m
[35m[HTTP][39m [37m<-- GET /wd/hub/session/aa5b7e55-b282-470e-afca-1030f7b0f3be/window/rect [39m[32m200[39m [90m42 ms - 50[39m
[35m[HTTP][39m [90m[39m
[35m[HTTP][39m [37m-->[39m [37mPOST[39m [37m/wd/hub/session/aa5b7e55-b282-470e-afca-1030f7b0f3be/elements[39m
[35m[HTTP][39m [90m{"using":"xpath","value":"//hierarchy/android.widget.FrameLayout[1]/android.widget.LinearLayout[1]/android.widget.FrameLayout[1]/android.widget.LinearLayout[1]/android.widget.FrameLayout[1]/android.view.ViewGroup[1]/android.widget.FrameLayout[1]/android.view.ViewGroup[1]/android.widget.ScrollView[1]/android.view.ViewGroup[1]/android.widget.Button[1]"}[39m
[35m[HTTP][39m [37m<-- POST /wd/hub/session/aa5b7e55-b282-470e-afca-1030f7b0f3be/elements [39m[32m200[39m [90m337 ms - 139[39m
[35m[HTTP][39m [90m[39m
[35m[HTTP][39m [37m-->[39m [37mGET[39m [37m/wd/hub/session/aa5b7e55-b282-470e-afca-1030f7b0f3be/element/00000000-0000-001c-ffff-ffff0000021d/location[39m
[35m[HTTP][39m [90m{}[39m
[35m[W3C (aa5b7e55)][39m Driver proxy active, passing request on via HTTP proxy
[35m[WD Proxy][39m Replacing sessionId cd859d06-b6c3-4f0e-bd1a-0225dd43baff with aa5b7e55-b282-470e-afca-1030f7b0f3be
[35m[HTTP][39m [37m<-- GET /wd/hub/session/aa5b7e55-b282-470e-afca-1030f7b0f3be/element/00000000-0000-001c-ffff-ffff0000021d/location [39m[32m200[39m [90m101 ms - 77[39m
[35m[HTTP][39m [90m[39m
[35m[HTTP][39m [37m-->[39m [37mPOST[39m [37m/wd/hub/session/aa5b7e55-b282-470e-afca-1030f7b0f3be/timeouts[39m
[35m[HTTP][39m [90m{"implicit":30000}[39m
[35m[HTTP][39m [37m<-- POST /wd/hub/session/aa5b7e55-b282-470e-afca-1030f7b0f3be/timeouts [39m[32m200[39m [90m3 ms - 14[39m
[35m[HTTP][39m [90m[39m
[35m[HTTP][39m [37m-->[39m [37mPOST[39m [37m/wd/hub/session/aa5b7e55-b282-470e-afca-1030f7b0f3be/element/00000000-0000-001c-ffff-ffff0000021d/click[39m
[35m[HTTP][39m [90m{"id":"00000000-0000-001c-ffff-ffff0000021d"}[39m
[35m[HTTP][39m [37m<-- POST /wd/hub/session/aa5b7e55-b282-470e-afca-1030f7b0f3be/element/00000000-0000-001c-ffff-ffff0000021d/click [39m[32m200[39m [90m213 ms - 14[39m
[35m[HTTP][39m [90m[39m
[35m[HTTP][39m [37m-->[39m [37mPOST[39m [37m/wd/hub/session/aa5b7e55-b282-470e-afca-1030f7b0f3be/timeouts[39m
[35m[HTTP][39m [90m{"implicit":50}[39m
[35m[HTTP][39m [37m<-- POST /wd/hub/session/aa5b7e55-b282-470e-afca-1030f7b0f3be/timeouts [39m[32m200[39m [90m4 ms - 14[39m
[35m[HTTP][39m [90m[39m
[35m[HTTP][39m [37m-->[39m [37mGET[39m [37m/wd/hub/session/aa5b7e55-b282-470e-afca-1030f7b0f3be/window/rect[39m
[35m[HTTP][39m [90m{}[39m
[35m[HTTP][39m [37m<-- GET /wd/hub/session/aa5b7e55-b282-470e-afca-1030f7b0f3be/window/rect [39m[32m200[39m [90m39 ms - 50[39m
[35m[HTTP][39m [90m[39m
[35m[HTTP][39m [37m-->[39m [37mPOST[39m [37m/wd/hub/session/aa5b7e55-b282-470e-afca-1030f7b0f3be/elements[39m
[35m[HTTP][39m [90m{"using":"xpath","value":"//*[@class = 'android.widget.TextView' and (@text = 'Masuk' or . = 'Masuk') and @resource-id = 'id.binar.fp.secondhand:id/tv_title_login']"}[39m
[35m[HTTP][39m [37m<-- POST /wd/hub/session/aa5b7e55-b282-470e-afca-1030f7b0f3be/elements [39m[32m200[39m [90m1088 ms - 12[39m
[35m[HTTP][39m [90m[39m
[35m[HTTP][39m [37m-->[39m [37mPOST[39m [37m/wd/hub/session/aa5b7e55-b282-470e-afca-1030f7b0f3be/elements[39m
[35m[HTTP][39m [90m{"using":"xpath","value":"//*[@class = 'android.widget.TextView' and (@text = 'Masuk' or . = 'Masuk') and @resource-id = 'id.binar.fp.secondhand:id/tv_title_login']"}[39m
[35m[HTTP][39m [37m<-- POST /wd/hub/session/aa5b7e55-b282-470e-afca-1030f7b0f3be/elements [39m[32m200[39m [90m504 ms - 139[39m
[35m[HTTP][39m [90m[39m
[35m[HTTP][39m [37m-->[39m [37mGET[39m [37m/wd/hub/session/aa5b7e55-b282-470e-afca-1030f7b0f3be/element/00000000-0000-001d-ffff-ffff00000234/location[39m
[35m[HTTP][39m [90m{}[39m
[35m[W3C (aa5b7e55)][39m Driver proxy active, passing request on via HTTP proxy
[35m[WD Proxy][39m Replacing sessionId cd859d06-b6c3-4f0e-bd1a-0225dd43baff with aa5b7e55-b282-470e-afca-1030f7b0f3be
[35m[HTTP][39m [37m<-- GET /wd/hub/session/aa5b7e55-b282-470e-afca-1030f7b0f3be/element/00000000-0000-001d-ffff-ffff00000234/location [39m[32m200[39m [90m48 ms - 77[39m
[35m[HTTP][39m [90m[39m
[35m[HTTP][39m [37m-->[39m [37mPOST[39m [37m/wd/hub/session/aa5b7e55-b282-470e-afca-1030f7b0f3be/timeouts[39m
[35m[HTTP][39m [90m{"implicit":30000}[39m
[35m[HTTP][39m [37m<-- POST /wd/hub/session/aa5b7e55-b282-470e-afca-1030f7b0f3be/timeouts [39m[32m200[39m [90m4 ms - 14[39m
[35m[HTTP][39m [90m[39m
[35m[HTTP][39m [37m-->[39m [37mGET[39m [37m/wd/hub/session/aa5b7e55-b282-470e-afca-1030f7b0f3be/element/00000000-0000-001d-ffff-ffff00000234/displayed[39m
[35m[HTTP][39m [90m{}[39m
[35m[HTTP][39m [37m<-- GET /wd/hub/session/aa5b7e55-b282-470e-afca-1030f7b0f3be/element/00000000-0000-001d-ffff-ffff00000234/displayed [39m[32m200[39m [90m78 ms - 14[39m
[35m[HTTP][39m [90m[39m
[35m[HTTP][39m [37m-->[39m [37mPOST[39m [37m/wd/hub/session/aa5b7e55-b282-470e-afca-1030f7b0f3be/timeouts[39m
[35m[HTTP][39m [90m{"implicit":50}[39m
[35m[HTTP][39m [37m<-- POST /wd/hub/session/aa5b7e55-b282-470e-afca-1030f7b0f3be/timeouts [39m[32m200[39m [90m5 ms - 14[39m
[35m[HTTP][39m [90m[39m
[35m[HTTP][39m [37m-->[39m [37mGET[39m [37m/wd/hub/session/aa5b7e55-b282-470e-afca-1030f7b0f3be/window/rect[39m
[35m[HTTP][39m [90m{}[39m
[35m[HTTP][39m [37m<-- GET /wd/hub/session/aa5b7e55-b282-470e-afca-1030f7b0f3be/window/rect [39m[32m200[39m [90m48 ms - 50[39m
[35m[HTTP][39m [90m[39m
[35m[HTTP][39m [37m-->[39m [37mPOST[39m [37m/wd/hub/session/aa5b7e55-b282-470e-afca-1030f7b0f3be/elements[39m
[35m[HTTP][39m [90m{"using":"id","value":"id.binar.fp.secondhand:id/tv_email"}[39m
[35m[HTTP][39m [37m<-- POST /wd/hub/session/aa5b7e55-b282-470e-afca-1030f7b0f3be/elements [39m[32m200[39m [90m59 ms - 139[39m
[35m[HTTP][39m [90m[39m
[35m[HTTP][39m [37m-->[39m [37mGET[39m [37m/wd/hub/session/aa5b7e55-b282-470e-afca-1030f7b0f3be/element/00000000-0000-001d-ffff-ffff00000235/location[39m
[35m[HTTP][39m [90m{}[39m
[35m[W3C (aa5b7e55)][39m Driver proxy active, passing request on via HTTP proxy
[35m[WD Proxy][39m Replacing sessionId cd859d06-b6c3-4f0e-bd1a-0225dd43baff with aa5b7e55-b282-470e-afca-1030f7b0f3be
[35m[HTTP][39m [37m<-- GET /wd/hub/session/aa5b7e55-b282-470e-afca-1030f7b0f3be/element/00000000-0000-001d-ffff-ffff00000235/location [39m[32m200[39m [90m45 ms - 77[39m
[35m[HTTP][39m [90m[39m
[35m[HTTP][39m [37m-->[39m [37mPOST[39m [37m/wd/hub/session/aa5b7e55-b282-470e-afca-1030f7b0f3be/timeouts[39m
[35m[HTTP][39m [90m{"implicit":30000}[39m
[35m[HTTP][39m [37m<-- POST /wd/hub/session/aa5b7e55-b282-470e-afca-1030f7b0f3be/timeouts [39m[32m200[39m [90m2 ms - 14[39m
[35m[HTTP][39m [90m[39m
[35m[HTTP][39m [37m-->[39m [37mGET[39m [37m/wd/hub/session/aa5b7e55-b282-470e-afca-1030f7b0f3be/element/00000000-0000-001d-ffff-ffff00000235/displayed[39m
[35m[HTTP][39m [90m{}[39m
[35m[HTTP][39m [37m<-- GET /wd/hub/session/aa5b7e55-b282-470e-afca-1030f7b0f3be/element/00000000-0000-001d-ffff-ffff00000235/displayed [39m[32m200[39m [90m35 ms - 14[39m
[35m[HTTP][39m [90m[39m
[35m[HTTP][39m [37m-->[39m [37mPOST[39m [37m/wd/hub/session/aa5b7e55-b282-470e-afca-1030f7b0f3be/timeouts[39m
[35m[HTTP][39m [90m{"implicit":50}[39m
[35m[HTTP][39m [37m<-- POST /wd/hub/session/aa5b7e55-b282-470e-afca-1030f7b0f3be/timeouts [39m[32m200[39m [90m2 ms - 14[39m
[35m[HTTP][39m [90m[39m
[35m[HTTP][39m [37m-->[39m [37mGET[39m [37m/wd/hub/session/aa5b7e55-b282-470e-afca-1030f7b0f3be/window/rect[39m
[35m[HTTP][39m [90m{}[39m
[35m[HTTP][39m [37m<-- GET /wd/hub/session/aa5b7e55-b282-470e-afca-1030f7b0f3be/window/rect [39m[32m200[39m [90m26 ms - 50[39m
[35m[HTTP][39m [90m[39m
[35m[HTTP][39m [37m-->[39m [37mPOST[39m [37m/wd/hub/session/aa5b7e55-b282-470e-afca-1030f7b0f3be/elements[39m
[35m[HTTP][39m [90m{"using":"id","value":"id.binar.fp.secondhand:id/et_email"}[39m
[35m[HTTP][39m [37m<-- POST /wd/hub/session/aa5b7e55-b282-470e-afca-1030f7b0f3be/elements [39m[32m200[39m [90m48 ms - 139[39m
[35m[HTTP][39m [90m[39m
[35m[HTTP][39m [37m-->[39m [37mGET[39m [37m/wd/hub/session/aa5b7e55-b282-470e-afca-1030f7b0f3be/element/00000000-0000-001d-ffff-ffff0000022a/location[39m
[35m[HTTP][39m [90m{}[39m
[35m[W3C (aa5b7e55)][39m Driver proxy active, passing request on via HTTP proxy
[35m[WD Proxy][39m Replacing sessionId cd859d06-b6c3-4f0e-bd1a-0225dd43baff with aa5b7e55-b282-470e-afca-1030f7b0f3be
[35m[HTTP][39m [37m<-- GET /wd/hub/session/aa5b7e55-b282-470e-afca-1030f7b0f3be/element/00000000-0000-001d-ffff-ffff0000022a/location [39m[32m200[39m [90m30 ms - 77[39m
[35m[HTTP][39m [90m[39m
[35m[HTTP][39m [37m-->[39m [37mPOST[39m [37m/wd/hub/session/aa5b7e55-b282-470e-afca-1030f7b0f3be/timeouts[39m
[35m[HTTP][39m [90m{"implicit":30000}[39m
[35m[HTTP][39m [37m<-- POST /wd/hub/session/aa5b7e55-b282-470e-afca-1030f7b0f3be/timeouts [39m[32m200[39m [90m2 ms - 14[39m
[35m[HTTP][39m [90m[39m
[35m[HTTP][39m [37m-->[39m [37mGET[39m [37m/wd/hub/session/aa5b7e55-b282-470e-afca-1030f7b0f3be/element/00000000-0000-001d-ffff-ffff0000022a/displayed[39m
[35m[HTTP][39m [90m{}[39m
[35m[HTTP][39m [37m<-- GET /wd/hub/session/aa5b7e55-b282-470e-afca-1030f7b0f3be/element/00000000-0000-001d-ffff-ffff0000022a/displayed [39m[32m200[39m [90m27 ms - 14[39m
[35m[HTTP][39m [90m[39m
[35m[HTTP][39m [37m-->[39m [37mPOST[39m [37m/wd/hub/session/aa5b7e55-b282-470e-afca-1030f7b0f3be/timeouts[39m
[35m[HTTP][39m [90m{"implicit":50}[39m
[35m[HTTP][39m [37m<-- POST /wd/hub/session/aa5b7e55-b282-470e-afca-1030f7b0f3be/timeouts [39m[32m200[39m [90m2 ms - 14[39m
[35m[HTTP][39m [90m[39m
[35m[HTTP][39m [37m-->[39m [37mGET[39m [37m/wd/hub/session/aa5b7e55-b282-470e-afca-1030f7b0f3be/window/rect[39m
[35m[HTTP][39m [90m{}[39m
[35m[HTTP][39m [37m<-- GET /wd/hub/session/aa5b7e55-b282-470e-afca-1030f7b0f3be/window/rect [39m[32m200[39m [90m30 ms - 50[39m
[35m[HTTP][39m [90m[39m
[35m[HTTP][39m [37m-->[39m [37mPOST[39m [37m/wd/hub/session/aa5b7e55-b282-470e-afca-1030f7b0f3be/elements[39m
[35m[HTTP][39m [90m{"using":"id","value":"id.binar.fp.secondhand:id/tv_password"}[39m
[35m[HTTP][39m [37m<-- POST /wd/hub/session/aa5b7e55-b282-470e-afca-1030f7b0f3be/elements [39m[32m200[39m [90m41 ms - 139[39m
[35m[HTTP][39m [90m[39m
[35m[HTTP][39m [37m-->[39m [37mGET[39m [37m/wd/hub/session/aa5b7e55-b282-470e-afca-1030f7b0f3be/element/00000000-0000-001d-ffff-ffff00000237/location[39m
[35m[HTTP][39m [90m{}[39m
[35m[W3C (aa5b7e55)][39m Driver proxy active, passing request on via HTTP proxy
[35m[WD Proxy][39m Replacing sessionId cd859d06-b6c3-4f0e-bd1a-0225dd43baff with aa5b7e55-b282-470e-afca-1030f7b0f3be
[35m[HTTP][39m [37m<-- GET /wd/hub/session/aa5b7e55-b282-470e-afca-1030f7b0f3be/element/00000000-0000-001d-ffff-ffff00000237/location [39m[32m200[39m [90m31 ms - 78[39m
[35m[HTTP][39m [90m[39m
[35m[HTTP][39m [37m-->[39m [37mPOST[39m [37m/wd/hub/session/aa5b7e55-b282-470e-afca-1030f7b0f3be/timeouts[39m
[35m[HTTP][39m [90m{"implicit":30000}[39m
[35m[HTTP][39m [37m<-- POST /wd/hub/session/aa5b7e55-b282-470e-afca-1030f7b0f3be/timeouts [39m[32m200[39m [90m2 ms - 14[39m
[35m[HTTP][39m [90m[39m
[35m[HTTP][39m [37m-->[39m [37mGET[39m [37m/wd/hub/session/aa5b7e55-b282-470e-afca-1030f7b0f3be/element/00000000-0000-001d-ffff-ffff00000237/displayed[39m
[35m[HTTP][39m [90m{}[39m
[35m[HTTP][39m [37m<-- GET /wd/hub/session/aa5b7e55-b282-470e-afca-1030f7b0f3be/element/00000000-0000-001d-ffff-ffff00000237/displayed [39m[32m200[39m [90m32 ms - 14[39m
[35m[HTTP][39m [90m[39m
[35m[HTTP][39m [37m-->[39m [37mPOST[39m [37m/wd/hub/session/aa5b7e55-b282-470e-afca-1030f7b0f3be/timeouts[39m
[35m[HTTP][39m [90m{"implicit":50}[39m
[35m[HTTP][39m [37m<-- POST /wd/hub/session/aa5b7e55-b282-470e-afca-1030f7b0f3be/timeouts [39m[32m200[39m [90m2 ms - 14[39m
[35m[HTTP][39m [90m[39m
[35m[HTTP][39m [37m-->[39m [37mGET[39m [37m/wd/hub/session/aa5b7e55-b282-470e-afca-1030f7b0f3be/window/rect[39m
[35m[HTTP][39m [90m{}[39m
[35m[HTTP][39m [37m<-- GET /wd/hub/session/aa5b7e55-b282-470e-afca-1030f7b0f3be/window/rect [39m[32m200[39m [90m21 ms - 50[39m
[35m[HTTP][39m [90m[39m
[35m[HTTP][39m [37m-->[39m [37mPOST[39m [37m/wd/hub/session/aa5b7e55-b282-470e-afca-1030f7b0f3be/elements[39m
[35m[HTTP][39m [90m{"using":"id","value":"id.binar.fp.secondhand:id/et_password"}[39m
[35m[HTTP][39m [37m<-- POST /wd/hub/session/aa5b7e55-b282-470e-afca-1030f7b0f3be/elements [39m[32m200[39m [90m38 ms - 139[39m
[35m[HTTP][39m [90m[39m
[35m[HTTP][39m [37m-->[39m [37mGET[39m [37m/wd/hub/session/aa5b7e55-b282-470e-afca-1030f7b0f3be/element/00000000-0000-001d-ffff-ffff0000023e/location[39m
[35m[HTTP][39m [90m{}[39m
[35m[W3C (aa5b7e55)][39m Driver proxy active, passing request on via HTTP proxy
[35m[WD Proxy][39m Replacing sessionId cd859d06-b6c3-4f0e-bd1a-0225dd43baff with aa5b7e55-b282-470e-afca-1030f7b0f3be
[35m[HTTP][39m [37m<-- GET /wd/hub/session/aa5b7e55-b282-470e-afca-1030f7b0f3be/element/00000000-0000-001d-ffff-ffff0000023e/location [39m[32m200[39m [90m52 ms - 78[39m
[35m[HTTP][39m [90m[39m
[35m[HTTP][39m [37m-->[39m [37mPOST[39m [37m/wd/hub/session/aa5b7e55-b282-470e-afca-1030f7b0f3be/timeouts[39m
[35m[HTTP][39m [90m{"implicit":30000}[39m
[35m[HTTP][39m [37m<-- POST /wd/hub/session/aa5b7e55-b282-470e-afca-1030f7b0f3be/timeouts [39m[32m200[39m [90m2 ms - 14[39m
[35m[HTTP][39m [90m[39m
[35m[HTTP][39m [37m-->[39m [37mGET[39m [37m/wd/hub/session/aa5b7e55-b282-470e-afca-1030f7b0f3be/element/00000000-0000-001d-ffff-ffff0000023e/displayed[39m
[35m[HTTP][39m [90m{}[39m
[35m[HTTP][39m [37m<-- GET /wd/hub/session/aa5b7e55-b282-470e-afca-1030f7b0f3be/element/00000000-0000-001d-ffff-ffff0000023e/displayed [39m[32m200[39m [90m21 ms - 14[39m
[35m[HTTP][39m [90m[39m
[35m[HTTP][39m [37m-->[39m [37mPOST[39m [37m/wd/hub/session/aa5b7e55-b282-470e-afca-1030f7b0f3be/timeouts[39m
[35m[HTTP][39m [90m{"implicit":50}[39m
[35m[HTTP][39m [37m<-- POST /wd/hub/session/aa5b7e55-b282-470e-afca-1030f7b0f3be/timeouts [39m[32m200[39m [90m2 ms - 14[39m
[35m[HTTP][39m [90m[39m
[35m[HTTP][39m [37m-->[39m [37mGET[39m [37m/wd/hub/session/aa5b7e55-b282-470e-afca-1030f7b0f3be/window/rect[39m
[35m[HTTP][39m [90m{}[39m
[35m[HTTP][39m [37m<-- GET /wd/hub/session/aa5b7e55-b282-470e-afca-1030f7b0f3be/window/rect [39m[32m200[39m [90m22 ms - 50[39m
[35m[HTTP][39m [90m[39m
[35m[HTTP][39m [37m-->[39m [37mPOST[39m [37m/wd/hub/session/aa5b7e55-b282-470e-afca-1030f7b0f3be/elements[39m
[35m[HTTP][39m [90m{"using":"xpath","value":"//*[@class = 'android.widget.Button' and (@text = 'Masuk' or . = 'Masuk') and @resource-id = 'id.binar.fp.secondhand:id/btn_login']"}[39m
[35m[HTTP][39m [37m<-- POST /wd/hub/session/aa5b7e55-b282-470e-afca-1030f7b0f3be/elements [39m[32m200[39m [90m196 ms - 139[39m
[35m[HTTP][39m [90m[39m
[35m[HTTP][39m [37m-->[39m [37mGET[39m [37m/wd/hub/session/aa5b7e55-b282-470e-afca-1030f7b0f3be/element/00000000-0000-001d-ffff-ffff00000239/location[39m
[35m[HTTP][39m [90m{}[39m
[35m[W3C (aa5b7e55)][39m Driver proxy active, passing request on via HTTP proxy
[35m[WD Proxy][39m Replacing sessionId cd859d06-b6c3-4f0e-bd1a-0225dd43baff with aa5b7e55-b282-470e-afca-1030f7b0f3be
[35m[HTTP][39m [37m<-- GET /wd/hub/session/aa5b7e55-b282-470e-afca-1030f7b0f3be/element/00000000-0000-001d-ffff-ffff00000239/location [39m[32m200[39m [90m34 ms - 78[39m
[35m[HTTP][39m [90m[39m
[35m[HTTP][39m [37m-->[39m [37mPOST[39m [37m/wd/hub/session/aa5b7e55-b282-470e-afca-1030f7b0f3be/timeouts[39m
[35m[HTTP][39m [90m{"implicit":30000}[39m
[35m[HTTP][39m [37m<-- POST /wd/hub/session/aa5b7e55-b282-470e-afca-1030f7b0f3be/timeouts [39m[32m200[39m [90m2 ms - 14[39m
[35m[HTTP][39m [90m[39m
[35m[HTTP][39m [37m-->[39m [37mGET[39m [37m/wd/hub/session/aa5b7e55-b282-470e-afca-1030f7b0f3be/element/00000000-0000-001d-ffff-ffff00000239/displayed[39m
[35m[HTTP][39m [90m{}[39m
[35m[HTTP][39m [37m<-- GET /wd/hub/session/aa5b7e55-b282-470e-afca-1030f7b0f3be/element/00000000-0000-001d-ffff-ffff00000239/displayed [39m[32m200[39m [90m21 ms - 14[39m
[35m[HTTP][39m [90m[39m
[35m[HTTP][39m [37m-->[39m [37mPOST[39m [37m/wd/hub/session/aa5b7e55-b282-470e-afca-1030f7b0f3be/timeouts[39m
[35m[HTTP][39m [90m{"implicit":50}[39m
[35m[HTTP][39m [37m<-- POST /wd/hub/session/aa5b7e55-b282-470e-afca-1030f7b0f3be/timeouts [39m[32m200[39m [90m3 ms - 14[39m
[35m[HTTP][39m [90m[39m
[35m[HTTP][39m [37m-->[39m [37mGET[39m [37m/wd/hub/session/aa5b7e55-b282-470e-afca-1030f7b0f3be/window/rect[39m
[35m[HTTP][39m [90m{}[39m
[35m[HTTP][39m [37m<-- GET /wd/hub/session/aa5b7e55-b282-470e-afca-1030f7b0f3be/window/rect [39m[32m200[39m [90m23 ms - 50[39m
[35m[HTTP][39m [90m[39m
[35m[HTTP][39m [37m-->[39m [37mPOST[39m [37m/wd/hub/session/aa5b7e55-b282-470e-afca-1030f7b0f3be/elements[39m
[35m[HTTP][39m [90m{"using":"id","value":"id.binar.fp.secondhand:id/tv_not_have_account"}[39m
[35m[HTTP][39m [37m<-- POST /wd/hub/session/aa5b7e55-b282-470e-afca-1030f7b0f3be/elements [39m[32m200[39m [90m40 ms - 139[39m
[35m[HTTP][39m [90m[39m
[35m[HTTP][39m [37m-->[39m [37mGET[39m [37m/wd/hub/session/aa5b7e55-b282-470e-afca-1030f7b0f3be/element/00000000-0000-001d-ffff-ffff0000023a/location[39m
[35m[HTTP][39m [90m{}[39m
[35m[W3C (aa5b7e55)][39m Driver proxy active, passing request on via HTTP proxy
[35m[WD Proxy][39m Replacing sessionId cd859d06-b6c3-4f0e-bd1a-0225dd43baff with aa5b7e55-b282-470e-afca-1030f7b0f3be
[35m[HTTP][39m [37m<-- GET /wd/hub/session/aa5b7e55-b282-470e-afca-1030f7b0f3be/element/00000000-0000-001d-ffff-ffff0000023a/location [39m[32m200[39m [90m26 ms - 79[39m
[35m[HTTP][39m [90m[39m
[35m[HTTP][39m [37m-->[39m [37mPOST[39m [37m/wd/hub/session/aa5b7e55-b282-470e-afca-1030f7b0f3be/timeouts[39m
[35m[HTTP][39m [90m{"implicit":30000}[39m
[35m[HTTP][39m [37m<-- POST /wd/hub/session/aa5b7e55-b282-470e-afca-1030f7b0f3be/timeouts [39m[32m200[39m [90m2 ms - 14[39m
[35m[HTTP][39m [90m[39m
[35m[HTTP][39m [37m-->[39m [37mGET[39m [37m/wd/hub/session/aa5b7e55-b282-470e-afca-1030f7b0f3be/element/00000000-0000-001d-ffff-ffff0000023a/displayed[39m
[35m[HTTP][39m [90m{}[39m
[35m[HTTP][39m [37m<-- GET /wd/hub/session/aa5b7e55-b282-470e-afca-1030f7b0f3be/element/00000000-0000-001d-ffff-ffff0000023a/displayed [39m[32m200[39m [90m18 ms - 14[39m
[35m[HTTP][39m [90m[39m
[35m[HTTP][39m [37m-->[39m [37mPOST[39m [37m/wd/hub/session/aa5b7e55-b282-470e-afca-1030f7b0f3be/timeouts[39m
[35m[HTTP][39m [90m{"implicit":50}[39m
[35m[HTTP][39m [37m<-- POST /wd/hub/session/aa5b7e55-b282-470e-afca-1030f7b0f3be/timeouts [39m[32m200[39m [90m3 ms - 14[39m
[35m[HTTP][39m [90m[39m
[35m[HTTP][39m [37m-->[39m [37mGET[39m [37m/wd/hub/session/aa5b7e55-b282-470e-afca-1030f7b0f3be/window/rect[39m
[35m[HTTP][39m [90m{}[39m
[35m[HTTP][39m [37m<-- GET /wd/hub/session/aa5b7e55-b282-470e-afca-1030f7b0f3be/window/rect [39m[32m200[39m [90m25 ms - 50[39m
[35m[HTTP][39m [90m[39m
[35m[HTTP][39m [37m-->[39m [37mPOST[39m [37m/wd/hub/session/aa5b7e55-b282-470e-afca-1030f7b0f3be/elements[39m
[35m[HTTP][39m [90m{"using":"xpath","value":"//*[@class = 'android.widget.TextView' and (@text = 'Daftar' or . = 'Daftar') and @resource-id = 'id.binar.fp.secondhand:id/tv_register']"}[39m
[35m[HTTP][39m [37m<-- POST /wd/hub/session/aa5b7e55-b282-470e-afca-1030f7b0f3be/elements [39m[32m200[39m [90m176 ms - 139[39m
[35m[HTTP][39m [90m[39m
[35m[HTTP][39m [37m-->[39m [37mGET[39m [37m/wd/hub/session/aa5b7e55-b282-470e-afca-1030f7b0f3be/element/00000000-0000-001d-ffff-ffff0000023b/location[39m
[35m[HTTP][39m [90m{}[39m
[35m[W3C (aa5b7e55)][39m Driver proxy active, passing request on via HTTP proxy
[35m[WD Proxy][39m Replacing sessionId cd859d06-b6c3-4f0e-bd1a-0225dd43baff with aa5b7e55-b282-470e-afca-1030f7b0f3be
[35m[HTTP][39m [37m<-- GET /wd/hub/session/aa5b7e55-b282-470e-afca-1030f7b0f3be/element/00000000-0000-001d-ffff-ffff0000023b/location [39m[32m200[39m [90m28 ms - 79[39m
[35m[HTTP][39m [90m[39m
[35m[HTTP][39m [37m-->[39m [37mPOST[39m [37m/wd/hub/session/aa5b7e55-b282-470e-afca-1030f7b0f3be/timeouts[39m
[35m[HTTP][39m [90m{"implicit":30000}[39m
[35m[HTTP][39m [37m<-- POST /wd/hub/session/aa5b7e55-b282-470e-afca-1030f7b0f3be/timeouts [39m[32m200[39m [90m2 ms - 14[39m
[35m[HTTP][39m [90m[39m
[35m[HTTP][39m [37m-->[39m [37mGET[39m [37m/wd/hub/session/aa5b7e55-b282-470e-afca-1030f7b0f3be/element/00000000-0000-001d-ffff-ffff0000023b/displayed[39m
[35m[HTTP][39m [90m{}[39m
[35m[HTTP][39m [37m<-- GET /wd/hub/session/aa5b7e55-b282-470e-afca-1030f7b0f3be/element/00000000-0000-001d-ffff-ffff0000023b/displayed [39m[32m200[39m [90m22 ms - 14[39m
[35m[HTTP][39m [90m[39m
[35m[HTTP][39m [37m-->[39m [37mPOST[39m [37m/wd/hub/session/aa5b7e55-b282-470e-afca-1030f7b0f3be/timeouts[39m
[35m[HTTP][39m [90m{"implicit":50}[39m
[35m[HTTP][39m [37m<-- POST /wd/hub/session/aa5b7e55-b282-470e-afca-1030f7b0f3be/timeouts [39m[32m200[39m [90m2 ms - 14[39m
[35m[HTTP][39m [90m[39m
[35m[HTTP][39m [37m-->[39m [37mGET[39m [37m/wd/hub/session/aa5b7e55-b282-470e-afca-1030f7b0f3be/window/rect[39m
[35m[HTTP][39m [90m{}[39m
[35m[HTTP][39m [37m<-- GET /wd/hub/session/aa5b7e55-b282-470e-afca-1030f7b0f3be/window/rect [39m[32m200[39m [90m24 ms - 50[39m
[35m[HTTP][39m [90m[39m
[35m[HTTP][39m [37m-->[39m [37mPOST[39m [37m/wd/hub/session/aa5b7e55-b282-470e-afca-1030f7b0f3be/elements[39m
[35m[HTTP][39m [90m{"using":"id","value":"id.binar.fp.secondhand:id/et_email"}[39m
[35m[HTTP][39m [37m<-- POST /wd/hub/session/aa5b7e55-b282-470e-afca-1030f7b0f3be/elements [39m[32m200[39m [90m61 ms - 139[39m
[35m[HTTP][39m [90m[39m
[35m[HTTP][39m [37m-->[39m [37mGET[39m [37m/wd/hub/session/aa5b7e55-b282-470e-afca-1030f7b0f3be/element/00000000-0000-001d-ffff-ffff0000022a/location[39m
[35m[HTTP][39m [90m{}[39m
[35m[W3C (aa5b7e55)][39m Driver proxy active, passing request on via HTTP proxy
[35m[WD Proxy][39m Replacing sessionId cd859d06-b6c3-4f0e-bd1a-0225dd43baff with aa5b7e55-b282-470e-afca-1030f7b0f3be
[35m[HTTP][39m [37m<-- GET /wd/hub/session/aa5b7e55-b282-470e-afca-1030f7b0f3be/element/00000000-0000-001d-ffff-ffff0000022a/location [39m[32m200[39m [90m41 ms - 77[39m
[35m[HTTP][39m [90m[39m
[35m[HTTP][39m [37m-->[39m [37mPOST[39m [37m/wd/hub/session/aa5b7e55-b282-470e-afca-1030f7b0f3be/timeouts[39m
[35m[HTTP][39m [90m{"implicit":30000}[39m
[35m[HTTP][39m [37m<-- POST /wd/hub/session/aa5b7e55-b282-470e-afca-1030f7b0f3be/timeouts [39m[32m200[39m [90m2 ms - 14[39m
[35m[HTTP][39m [90m[39m
[35m[HTTP][39m [37m-->[39m [37mPOST[39m [37m/wd/hub/session/aa5b7e55-b282-470e-afca-1030f7b0f3be/timeouts[39m
[35m[HTTP][39m [90m{"implicit":50}[39m
[35m[HTTP][39m [37m<-- POST /wd/hub/session/aa5b7e55-b282-470e-afca-1030f7b0f3be/timeouts [39m[32m200[39m [90m3 ms - 14[39m
[35m[HTTP][39m [90m[39m
[35m[HTTP][39m [37m-->[39m [37mGET[39m [37m/wd/hub/session/aa5b7e55-b282-470e-afca-1030f7b0f3be/window/rect[39m
[35m[HTTP][39m [90m{}[39m
[35m[HTTP][39m [37m<-- GET /wd/hub/session/aa5b7e55-b282-470e-afca-1030f7b0f3be/window/rect [39m[32m200[39m [90m19 ms - 50[39m
[35m[HTTP][39m [90m[39m
[35m[HTTP][39m [37m-->[39m [37mPOST[39m [37m/wd/hub/session/aa5b7e55-b282-470e-afca-1030f7b0f3be/elements[39m
[35m[HTTP][39m [90m{"using":"id","value":"id.binar.fp.secondhand:id/et_email"}[39m
[35m[HTTP][39m [37m<-- POST /wd/hub/session/aa5b7e55-b282-470e-afca-1030f7b0f3be/elements [39m[32m200[39m [90m49 ms - 139[39m
[35m[HTTP][39m [90m[39m
[35m[HTTP][39m [37m-->[39m [37mGET[39m [37m/wd/hub/session/aa5b7e55-b282-470e-afca-1030f7b0f3be/element/00000000-0000-001d-ffff-ffff0000022a/location[39m
[35m[HTTP][39m [90m{}[39m
[35m[W3C (aa5b7e55)][39m Driver proxy active, passing request on via HTTP proxy
[35m[WD Proxy][39m Replacing sessionId cd859d06-b6c3-4f0e-bd1a-0225dd43baff with aa5b7e55-b282-470e-afca-1030f7b0f3be
[35m[HTTP][39m [37m<-- GET /wd/hub/session/aa5b7e55-b282-470e-afca-1030f7b0f3be/element/00000000-0000-001d-ffff-ffff0000022a/location [39m[32m200[39m [90m42 ms - 77[39m
[35m[HTTP][39m [90m[39m
[35m[HTTP][39m [37m-->[39m [37mPOST[39m [37m/wd/hub/session/aa5b7e55-b282-470e-afca-1030f7b0f3be/timeouts[39m
[35m[HTTP][39m [90m{"implicit":30000}[39m
[35m[HTTP][39m [37m<-- POST /wd/hub/session/aa5b7e55-b282-470e-afca-1030f7b0f3be/timeouts [39m[32m200[39m [90m2 ms - 14[39m
[35m[HTTP][39m [90m[39m
[35m[HTTP][39m [37m-->[39m [37mPOST[39m [37m/wd/hub/session/aa5b7e55-b282-470e-afca-1030f7b0f3be/element/00000000-0000-001d-ffff-ffff0000022a/clear[39m
[35m[HTTP][39m [90m{"id":"00000000-0000-001d-ffff-ffff0000022a"}[39m
[35m[HTTP][39m [37m<-- POST /wd/hub/session/aa5b7e55-b282-470e-afca-1030f7b0f3be/element/00000000-0000-001d-ffff-ffff0000022a/clear [39m[32m200[39m [90m49 ms - 14[39m
[35m[HTTP][39m [90m[39m
[35m[HTTP][39m [37m-->[39m [37mPOST[39m [37m/wd/hub/session/aa5b7e55-b282-470e-afca-1030f7b0f3be/element/00000000-0000-001d-ffff-ffff0000022a/value[39m
[35m[HTTP][39m [90m{"id":"00000000-0000-001d-ffff-ffff0000022a","text":"sub.issadha@gmail.com","value":["s","u","b",".","i","s","s","a","d","h","a","@","g","m","a","i","l",".","c","o","m"]}[39m
[35m[HTTP][39m [37m<-- POST /wd/hub/session/aa5b7e55-b282-470e-afca-1030f7b0f3be/element/00000000-0000-001d-ffff-ffff0000022a/value [39m[32m200[39m [90m1085 ms - 14[39m
[35m[HTTP][39m [90m[39m
[35m[HTTP][39m [37m-->[39m [37mPOST[39m [37m/wd/hub/session/aa5b7e55-b282-470e-afca-1030f7b0f3be/timeouts[39m
[35m[HTTP][39m [90m{"implicit":50}[39m
[35m[HTTP][39m [37m<-- POST /wd/hub/session/aa5b7e55-b282-470e-afca-1030f7b0f3be/timeouts [39m[32m200[39m [90m2 ms - 14[39m
[35m[HTTP][39m [90m[39m
[35m[HTTP][39m [37m-->[39m [37mGET[39m [37m/wd/hub/session/aa5b7e55-b282-470e-afca-1030f7b0f3be/window/rect[39m
[35m[HTTP][39m [90m{}[39m
[35m[HTTP][39m [37m<-- GET /wd/hub/session/aa5b7e55-b282-470e-afca-1030f7b0f3be/window/rect [39m[32m200[39m [90m22 ms - 50[39m
[35m[HTTP][39m [90m[39m
[35m[HTTP][39m [37m-->[39m [37mPOST[39m [37m/wd/hub/session/aa5b7e55-b282-470e-afca-1030f7b0f3be/elements[39m
[35m[HTTP][39m [90m{"using":"id","value":"id.binar.fp.secondhand:id/et_password"}[39m
[35m[HTTP][39m [37m<-- POST /wd/hub/session/aa5b7e55-b282-470e-afca-1030f7b0f3be/elements [39m[32m200[39m [90m36 ms - 139[39m
[35m[HTTP][39m [90m[39m
[35m[HTTP][39m [37m-->[39m [37mGET[39m [37m/wd/hub/session/aa5b7e55-b282-470e-afca-1030f7b0f3be/element/00000000-0000-001d-ffff-ffff0000023e/location[39m
[35m[HTTP][39m [90m{}[39m
[35m[W3C (aa5b7e55)][39m Driver proxy active, passing request on via HTTP proxy
[35m[WD Proxy][39m Replacing sessionId cd859d06-b6c3-4f0e-bd1a-0225dd43baff with aa5b7e55-b282-470e-afca-1030f7b0f3be
[35m[HTTP][39m [37m<-- GET /wd/hub/session/aa5b7e55-b282-470e-afca-1030f7b0f3be/element/00000000-0000-001d-ffff-ffff0000023e/location [39m[32m200[39m [90m30 ms - 78[39m
[35m[HTTP][39m [90m[39m
[35m[HTTP][39m [37m-->[39m [37mPOST[39m [37m/wd/hub/session/aa5b7e55-b282-470e-afca-1030f7b0f3be/timeouts[39m
[35m[HTTP][39m [90m{"implicit":30000}[39m
[35m[HTTP][39m [37m<-- POST /wd/hub/session/aa5b7e55-b282-470e-afca-1030f7b0f3be/timeouts [39m[32m200[39m [90m2 ms - 14[39m
[35m[HTTP][39m [90m[39m
[35m[HTTP][39m [37m-->[39m [37mPOST[39m [37m/wd/hub/session/aa5b7e55-b282-470e-afca-1030f7b0f3be/timeouts[39m
[35m[HTTP][39m [90m{"implicit":50}[39m
[35m[HTTP][39m [37m<-- POST /wd/hub/session/aa5b7e55-b282-470e-afca-1030f7b0f3be/timeouts [39m[32m200[39m [90m2 ms - 14[39m
[35m[HTTP][39m [90m[39m
[35m[HTTP][39m [37m-->[39m [37mGET[39m [37m/wd/hub/session/aa5b7e55-b282-470e-afca-1030f7b0f3be/window/rect[39m
[35m[HTTP][39m [90m{}[39m
[35m[HTTP][39m [37m<-- GET /wd/hub/session/aa5b7e55-b282-470e-afca-1030f7b0f3be/window/rect [39m[32m200[39m [90m22 ms - 50[39m
[35m[HTTP][39m [90m[39m
[35m[HTTP][39m [37m-->[39m [37mPOST[39m [37m/wd/hub/session/aa5b7e55-b282-470e-afca-1030f7b0f3be/elements[39m
[35m[HTTP][39m [90m{"using":"id","value":"id.binar.fp.secondhand:id/et_password"}[39m
[35m[HTTP][39m [37m<-- POST /wd/hub/session/aa5b7e55-b282-470e-afca-1030f7b0f3be/elements [39m[32m200[39m [90m35 ms - 139[39m
[35m[HTTP][39m [90m[39m
[35m[HTTP][39m [37m-->[39m [37mGET[39m [37m/wd/hub/session/aa5b7e55-b282-470e-afca-1030f7b0f3be/element/00000000-0000-001d-ffff-ffff0000023e/location[39m
[35m[HTTP][39m [90m{}[39m
[35m[W3C (aa5b7e55)][39m Driver proxy active, passing request on via HTTP proxy
[35m[WD Proxy][39m Replacing sessionId cd859d06-b6c3-4f0e-bd1a-0225dd43baff with aa5b7e55-b282-470e-afca-1030f7b0f3be
[35m[HTTP][39m [37m<-- GET /wd/hub/session/aa5b7e55-b282-470e-afca-1030f7b0f3be/element/00000000-0000-001d-ffff-ffff0000023e/location [39m[32m200[39m [90m29 ms - 78[39m
[35m[HTTP][39m [90m[39m
[35m[HTTP][39m [37m-->[39m [37mPOST[39m [37m/wd/hub/session/aa5b7e55-b282-470e-afca-1030f7b0f3be/timeouts[39m
[35m[HTTP][39m [90m{"implicit":30000}[39m
[35m[HTTP][39m [37m<-- POST /wd/hub/session/aa5b7e55-b282-470e-afca-1030f7b0f3be/timeouts [39m[32m200[39m [90m2 ms - 14[39m
[35m[HTTP][39m [90m[39m
[35m[HTTP][39m [37m-->[39m [37mPOST[39m [37m/wd/hub/session/aa5b7e55-b282-470e-afca-1030f7b0f3be/element/00000000-0000-001d-ffff-ffff0000023e/clear[39m
[35m[HTTP][39m [90m{"id":"00000000-0000-001d-ffff-ffff0000023e"}[39m
[35m[HTTP][39m [37m<-- POST /wd/hub/session/aa5b7e55-b282-470e-afca-1030f7b0f3be/element/00000000-0000-001d-ffff-ffff0000023e/clear [39m[32m200[39m [90m29 ms - 14[39m
[35m[HTTP][39m [90m[39m
[35m[HTTP][39m [37m-->[39m [37mPOST[39m [37m/wd/hub/session/aa5b7e55-b282-470e-afca-1030f7b0f3be/element/00000000-0000-001d-ffff-ffff0000023e/value[39m
[35m[HTTP][39m [90m{"id":"00000000-0000-001d-ffff-ffff0000023e","text":"*123*123*","value":["*","1","2","3","*","1","2","3","*"]}[39m
[35m[HTTP][39m [37m<-- POST /wd/hub/session/aa5b7e55-b282-470e-afca-1030f7b0f3be/element/00000000-0000-001d-ffff-ffff0000023e/value [39m[32m200[39m [90m547 ms - 14[39m
[35m[HTTP][39m [90m[39m
[35m[HTTP][39m [37m-->[39m [37mPOST[39m [37m/wd/hub/session/aa5b7e55-b282-470e-afca-1030f7b0f3be/timeouts[39m
[35m[HTTP][39m [90m{"implicit":50}[39m
[35m[HTTP][39m [37m<-- POST /wd/hub/session/aa5b7e55-b282-470e-afca-1030f7b0f3be/timeouts [39m[32m200[39m [90m3 ms - 14[39m
[35m[HTTP][39m [90m[39m
[35m[HTTP][39m [37m-->[39m [37mGET[39m [37m/wd/hub/session/aa5b7e55-b282-470e-afca-1030f7b0f3be/window/rect[39m
[35m[HTTP][39m [90m{}[39m
[35m[HTTP][39m [37m<-- GET /wd/hub/session/aa5b7e55-b282-470e-afca-1030f7b0f3be/window/rect [39m[32m200[39m [90m22 ms - 50[39m
[35m[HTTP][39m [90m[39m
[35m[HTTP][39m [37m-->[39m [37mPOST[39m [37m/wd/hub/session/aa5b7e55-b282-470e-afca-1030f7b0f3be/elements[39m
[35m[HTTP][39m [90m{"using":"xpath","value":"//*[@class = 'android.widget.Button' and (@text = 'Masuk' or . = 'Masuk') and @resource-id = 'id.binar.fp.secondhand:id/btn_login']"}[39m
[35m[HTTP][39m [37m<-- POST /wd/hub/session/aa5b7e55-b282-470e-afca-1030f7b0f3be/elements [39m[32m200[39m [90m437 ms - 139[39m
[35m[HTTP][39m [90m[39m
[35m[HTTP][39m [37m-->[39m [37mGET[39m [37m/wd/hub/session/aa5b7e55-b282-470e-afca-1030f7b0f3be/element/00000000-0000-001d-ffff-ffff00000239/location[39m
[35m[HTTP][39m [90m{}[39m
[35m[W3C (aa5b7e55)][39m Driver proxy active, passing request on via HTTP proxy
[35m[WD Proxy][39m Replacing sessionId cd859d06-b6c3-4f0e-bd1a-0225dd43baff with aa5b7e55-b282-470e-afca-1030f7b0f3be
[35m[HTTP][39m [37m<-- GET /wd/hub/session/aa5b7e55-b282-470e-afca-1030f7b0f3be/element/00000000-0000-001d-ffff-ffff00000239/location [39m[32m200[39m [90m25 ms - 78[39m
[35m[HTTP][39m [90m[39m
[35m[HTTP][39m [37m-->[39m [37mPOST[39m [37m/wd/hub/session/aa5b7e55-b282-470e-afca-1030f7b0f3be/timeouts[39m
[35m[HTTP][39m [90m{"implicit":30000}[39m
[35m[HTTP][39m [37m<-- POST /wd/hub/session/aa5b7e55-b282-470e-afca-1030f7b0f3be/timeouts [39m[32m200[39m [90m3 ms - 14[39m
[35m[HTTP][39m [90m[39m
[35m[HTTP][39m [37m-->[39m [37mPOST[39m [37m/wd/hub/session/aa5b7e55-b282-470e-afca-1030f7b0f3be/timeouts[39m
[35m[HTTP][39m [90m{"implicit":50}[39m
[35m[HTTP][39m [37m<-- POST /wd/hub/session/aa5b7e55-b282-470e-afca-1030f7b0f3be/timeouts [39m[32m200[39m [90m3 ms - 14[39m
[35m[HTTP][39m [90m[39m
[35m[HTTP][39m [37m-->[39m [37mGET[39m [37m/wd/hub/session/aa5b7e55-b282-470e-afca-1030f7b0f3be/window/rect[39m
[35m[HTTP][39m [90m{}[39m
[35m[HTTP][39m [37m<-- GET /wd/hub/session/aa5b7e55-b282-470e-afca-1030f7b0f3be/window/rect [39m[32m200[39m [90m22 ms - 50[39m
[35m[HTTP][39m [90m[39m
[35m[HTTP][39m [37m-->[39m [37mPOST[39m [37m/wd/hub/session/aa5b7e55-b282-470e-afca-1030f7b0f3be/elements[39m
[35m[HTTP][39m [90m{"using":"xpath","value":"//*[@class = 'android.widget.Button' and (@text = 'Masuk' or . = 'Masuk') and @resource-id = 'id.binar.fp.secondhand:id/btn_login']"}[39m
[35m[HTTP][39m [37m<-- POST /wd/hub/session/aa5b7e55-b282-470e-afca-1030f7b0f3be/elements [39m[32m200[39m [90m170 ms - 139[39m
[35m[HTTP][39m [90m[39m
[35m[HTTP][39m [37m-->[39m [37mGET[39m [37m/wd/hub/session/aa5b7e55-b282-470e-afca-1030f7b0f3be/element/00000000-0000-001d-ffff-ffff00000239/location[39m
[35m[HTTP][39m [90m{}[39m
[35m[W3C (aa5b7e55)][39m Driver proxy active, passing request on via HTTP proxy
[35m[WD Proxy][39m Replacing sessionId cd859d06-b6c3-4f0e-bd1a-0225dd43baff with aa5b7e55-b282-470e-afca-1030f7b0f3be
[35m[HTTP][39m [37m<-- GET /wd/hub/session/aa5b7e55-b282-470e-afca-1030f7b0f3be/element/00000000-0000-001d-ffff-ffff00000239/location [39m[32m200[39m [90m47 ms - 78[39m
[35m[HTTP][39m [90m[39m
[35m[HTTP][39m [37m-->[39m [37mPOST[39m [37m/wd/hub/session/aa5b7e55-b282-470e-afca-1030f7b0f3be/timeouts[39m
[35m[HTTP][39m [90m{"implicit":30000}[39m
[35m[HTTP][39m [37m<-- POST /wd/hub/session/aa5b7e55-b282-470e-afca-1030f7b0f3be/timeouts [39m[32m200[39m [90m3 ms - 14[39m
[35m[HTTP][39m [90m[39m
[35m[HTTP][39m [37m-->[39m [37mPOST[39m [37m/wd/hub/session/aa5b7e55-b282-470e-afca-1030f7b0f3be/element/00000000-0000-001d-ffff-ffff00000239/click[39m
[35m[HTTP][39m [90m{"id":"00000000-0000-001d-ffff-ffff00000239"}[39m
[35m[HTTP][39m [37m<-- POST /wd/hub/session/aa5b7e55-b282-470e-afca-1030f7b0f3be/element/00000000-0000-001d-ffff-ffff00000239/click [39m[32m200[39m [90m36 ms - 14[39m
[35m[HTTP][39m [90m[39m
[35m[HTTP][39m [37m-->[39m [37mPOST[39m [37m/wd/hub/session/aa5b7e55-b282-470e-afca-1030f7b0f3be/timeouts[39m
[35m[HTTP][39m [90m{"implicit":50}[39m
[35m[HTTP][39m [37m<-- POST /wd/hub/session/aa5b7e55-b282-470e-afca-1030f7b0f3be/timeouts [39m[32m200[39m [90m2 ms - 14[39m
[35m[HTTP][39m [90m[39m
[35m[HTTP][39m [37m-->[39m [37mGET[39m [37m/wd/hub/session/aa5b7e55-b282-470e-afca-1030f7b0f3be/window/rect[39m
[35m[HTTP][39m [90m{}[39m
[35m[HTTP][39m [37m<-- GET /wd/hub/session/aa5b7e55-b282-470e-afca-1030f7b0f3be/window/rect [39m[32m200[39m [90m29 ms - 50[39m
[35m[HTTP][39m [90m[39m
[35m[HTTP][39m [37m-->[39m [37mPOST[39m [37m/wd/hub/session/aa5b7e55-b282-470e-afca-1030f7b0f3be/elements[39m
[35m[HTTP][39m [90m{"using":"id","value":"id.binar.fp.secondhand:id/tv_title_page"}[39m
[35m[HTTP][39m [37m<-- POST /wd/hub/session/aa5b7e55-b282-470e-afca-1030f7b0f3be/elements [39m[32m200[39m [90m543 ms - 139[39m
[35m[HTTP][39m [90m[39m
[35m[HTTP][39m [37m-->[39m [37mGET[39m [37m/wd/hub/session/aa5b7e55-b282-470e-afca-1030f7b0f3be/element/00000000-0000-001c-ffff-ffff00000206/location[39m
[35m[HTTP][39m [90m{}[39m
[35m[W3C (aa5b7e55)][39m Driver proxy active, passing request on via HTTP proxy
[35m[WD Proxy][39m Replacing sessionId cd859d06-b6c3-4f0e-bd1a-0225dd43baff with aa5b7e55-b282-470e-afca-1030f7b0f3be
[35m[HTTP][39m [37m<-- GET /wd/hub/session/aa5b7e55-b282-470e-afca-1030f7b0f3be/element/00000000-0000-001c-ffff-ffff00000206/location [39m[32m200[39m [90m55 ms - 77[39m
[35m[HTTP][39m [90m[39m
[35m[HTTP][39m [37m-->[39m [37mPOST[39m [37m/wd/hub/session/aa5b7e55-b282-470e-afca-1030f7b0f3be/timeouts[39m
[35m[HTTP][39m [90m{"implicit":30000}[39m
[35m[HTTP][39m [37m<-- POST /wd/hub/session/aa5b7e55-b282-470e-afca-1030f7b0f3be/timeouts [39m[32m200[39m [90m3 ms - 14[39m
[35m[HTTP][39m [90m[39m
[35m[HTTP][39m [37m-->[39m [37mGET[39m [37m/wd/hub/session/aa5b7e55-b282-470e-afca-1030f7b0f3be/element/00000000-0000-001c-ffff-ffff00000206/displayed[39m
[35m[HTTP][39m [90m{}[39m
[35m[HTTP][39m [37m<-- GET /wd/hub/session/aa5b7e55-b282-470e-afca-1030f7b0f3be/element/00000000-0000-001c-ffff-ffff00000206/displayed [39m[32m200[39m [90m81 ms - 14[39m
[35m[HTTP][39m [90m[39m
[35m[HTTP][39m [37m-->[39m [37mPOST[39m [37m/wd/hub/session/aa5b7e55-b282-470e-afca-1030f7b0f3be/timeouts[39m
[35m[HTTP][39m [90m{"implicit":50}[39m
[35m[HTTP][39m [37m<-- POST /wd/hub/session/aa5b7e55-b282-470e-afca-1030f7b0f3be/timeouts [39m[32m200[39m [90m2 ms - 14[39m
[35m[HTTP][39m [90m[39m
[35m[HTTP][39m [37m-->[39m [37mGET[39m [37m/wd/hub/session/aa5b7e55-b282-470e-afca-1030f7b0f3be/window/rect[39m
[35m[HTTP][39m [90m{}[39m
[35m[HTTP][39m [37m<-- GET /wd/hub/session/aa5b7e55-b282-470e-afca-1030f7b0f3be/window/rect [39m[32m200[39m [90m27 ms - 50[39m
[35m[HTTP][39m [90m[39m
[35m[HTTP][39m [37m-->[39m [37mPOST[39m [37m/wd/hub/session/aa5b7e55-b282-470e-afca-1030f7b0f3be/elements[39m
[35m[HTTP][39m [90m{"using":"id","value":"id.binar.fp.secondhand:id/tv_name"}[39m
[35m[HTTP][39m [37m<-- POST /wd/hub/session/aa5b7e55-b282-470e-afca-1030f7b0f3be/elements [39m[32m200[39m [90m212 ms - 139[39m
[35m[HTTP][39m [90m[39m
[35m[HTTP][39m [37m-->[39m [37mGET[39m [37m/wd/hub/session/aa5b7e55-b282-470e-afca-1030f7b0f3be/element/00000000-0000-001c-ffff-ffff00000208/location[39m
[35m[HTTP][39m [90m{}[39m
[35m[W3C (aa5b7e55)][39m Driver proxy active, passing request on via HTTP proxy
[35m[WD Proxy][39m Replacing sessionId cd859d06-b6c3-4f0e-bd1a-0225dd43baff with aa5b7e55-b282-470e-afca-1030f7b0f3be
[35m[HTTP][39m [37m<-- GET /wd/hub/session/aa5b7e55-b282-470e-afca-1030f7b0f3be/element/00000000-0000-001c-ffff-ffff00000208/location [39m[32m200[39m [90m99 ms - 78[39m
[35m[HTTP][39m [90m[39m
[35m[HTTP][39m [37m-->[39m [37mPOST[39m [37m/wd/hub/session/aa5b7e55-b282-470e-afca-1030f7b0f3be/timeouts[39m
[35m[HTTP][39m [90m{"implicit":30000}[39m
[35m[HTTP][39m [37m<-- POST /wd/hub/session/aa5b7e55-b282-470e-afca-1030f7b0f3be/timeouts [39m[32m200[39m [90m2 ms - 14[39m
[35m[HTTP][39m [90m[39m
[35m[HTTP][39m [37m-->[39m [37mGET[39m [37m/wd/hub/session/aa5b7e55-b282-470e-afca-1030f7b0f3be/element/00000000-0000-001c-ffff-ffff00000208/displayed[39m
[35m[HTTP][39m [90m{}[39m
[35m[HTTP][39m [37m<-- GET /wd/hub/session/aa5b7e55-b282-470e-afca-1030f7b0f3be/element/00000000-0000-001c-ffff-ffff00000208/displayed [39m[32m200[39m [90m31 ms - 14[39m
[35m[HTTP][39m [90m[39m
[35m[HTTP][39m [37m-->[39m [37mPOST[39m [37m/wd/hub/session/aa5b7e55-b282-470e-afca-1030f7b0f3be/timeouts[39m
[35m[HTTP][39m [90m{"implicit":50}[39m
[35m[HTTP][39m [37m<-- POST /wd/hub/session/aa5b7e55-b282-470e-afca-1030f7b0f3be/timeouts [39m[32m200[39m [90m3 ms - 14[39m
[35m[HTTP][39m [90m[39m
[35m[HTTP][39m [37m-->[39m [37mGET[39m [37m/wd/hub/session/aa5b7e55-b282-470e-afca-1030f7b0f3be/window/rect[39m
[35m[HTTP][39m [90m{}[39m
[35m[HTTP][39m [37m<-- GET /wd/hub/session/aa5b7e55-b282-470e-afca-1030f7b0f3be/window/rect [39m[32m200[39m [90m25 ms - 50[39m
[35m[HTTP][39m [90m[39m
[35m[HTTP][39m [37m-->[39m [37mPOST[39m [37m/wd/hub/session/aa5b7e55-b282-470e-afca-1030f7b0f3be/elements[39m
[35m[HTTP][39m [90m{"using":"id","value":"id.binar.fp.secondhand:id/tv_phone"}[39m
[35m[HTTP][39m [37m<-- POST /wd/hub/session/aa5b7e55-b282-470e-afca-1030f7b0f3be/elements [39m[32m200[39m [90m186 ms - 139[39m
[35m[HTTP][39m [90m[39m
[35m[HTTP][39m [37m-->[39m [37mGET[39m [37m/wd/hub/session/aa5b7e55-b282-470e-afca-1030f7b0f3be/element/00000000-0000-001c-ffff-ffff00000209/location[39m
[35m[HTTP][39m [90m{}[39m
[35m[W3C (aa5b7e55)][39m Driver proxy active, passing request on via HTTP proxy
[35m[WD Proxy][39m Replacing sessionId cd859d06-b6c3-4f0e-bd1a-0225dd43baff with aa5b7e55-b282-470e-afca-1030f7b0f3be
[35m[HTTP][39m [37m<-- GET /wd/hub/session/aa5b7e55-b282-470e-afca-1030f7b0f3be/element/00000000-0000-001c-ffff-ffff00000209/location [39m[32m200[39m [90m48 ms - 78[39m
[35m[HTTP][39m [90m[39m
[35m[HTTP][39m [37m-->[39m [37mPOST[39m [37m/wd/hub/session/aa5b7e55-b282-470e-afca-1030f7b0f3be/timeouts[39m
[35m[HTTP][39m [90m{"implicit":30000}[39m
[35m[HTTP][39m [37m<-- POST /wd/hub/session/aa5b7e55-b282-470e-afca-1030f7b0f3be/timeouts [39m[32m200[39m [90m3 ms - 14[39m
[35m[HTTP][39m [90m[39m
[35m[HTTP][39m [37m-->[39m [37mGET[39m [37m/wd/hub/session/aa5b7e55-b282-470e-afca-1030f7b0f3be/element/00000000-0000-001c-ffff-ffff00000209/displayed[39m
[35m[HTTP][39m [90m{}[39m
[35m[HTTP][39m [37m<-- GET /wd/hub/session/aa5b7e55-b282-470e-afca-1030f7b0f3be/element/00000000-0000-001c-ffff-ffff00000209/displayed [39m[32m200[39m [90m54 ms - 14[39m
[35m[HTTP][39m [90m[39m
[35m[HTTP][39m [37m-->[39m [37mPOST[39m [37m/wd/hub/session/aa5b7e55-b282-470e-afca-1030f7b0f3be/timeouts[39m
[35m[HTTP][39m [90m{"implicit":50}[39m
[35m[HTTP][39m [37m<-- POST /wd/hub/session/aa5b7e55-b282-470e-afca-1030f7b0f3be/timeouts [39m[32m200[39m [90m2 ms - 14[39m
[35m[HTTP][39m [90m[39m
[35m[HTTP][39m [37m-->[39m [37mGET[39m [37m/wd/hub/session/aa5b7e55-b282-470e-afca-1030f7b0f3be/window/rect[39m
[35m[HTTP][39m [90m{}[39m
[35m[HTTP][39m [37m<-- GET /wd/hub/session/aa5b7e55-b282-470e-afca-1030f7b0f3be/window/rect [39m[32m200[39m [90m24 ms - 50[39m
[35m[HTTP][39m [90m[39m
[35m[HTTP][39m [37m-->[39m [37mPOST[39m [37m/wd/hub/session/aa5b7e55-b282-470e-afca-1030f7b0f3be/elements[39m
[35m[HTTP][39m [90m{"using":"id","value":"id.binar.fp.secondhand:id/tv_email"}[39m
[35m[HTTP][39m [37m<-- POST /wd/hub/session/aa5b7e55-b282-470e-afca-1030f7b0f3be/elements [39m[32m200[39m [90m127 ms - 139[39m
[35m[HTTP][39m [90m[39m
[35m[HTTP][39m [37m-->[39m [37mGET[39m [37m/wd/hub/session/aa5b7e55-b282-470e-afca-1030f7b0f3be/element/00000000-0000-001c-ffff-ffff0000020a/location[39m
[35m[HTTP][39m [90m{}[39m
[35m[W3C (aa5b7e55)][39m Driver proxy active, passing request on via HTTP proxy
[35m[WD Proxy][39m Replacing sessionId cd859d06-b6c3-4f0e-bd1a-0225dd43baff with aa5b7e55-b282-470e-afca-1030f7b0f3be
[35m[HTTP][39m [37m<-- GET /wd/hub/session/aa5b7e55-b282-470e-afca-1030f7b0f3be/element/00000000-0000-001c-ffff-ffff0000020a/location [39m[32m200[39m [90m34 ms - 78[39m
[35m[HTTP][39m [90m[39m
[35m[HTTP][39m [37m-->[39m [37mPOST[39m [37m/wd/hub/session/aa5b7e55-b282-470e-afca-1030f7b0f3be/timeouts[39m
[35m[HTTP][39m [90m{"implicit":30000}[39m
[35m[HTTP][39m [37m<-- POST /wd/hub/session/aa5b7e55-b282-470e-afca-1030f7b0f3be/timeouts [39m[32m200[39m [90m2 ms - 14[39m
[35m[HTTP][39m [90m[39m
[35m[HTTP][39m [37m-->[39m [37mGET[39m [37m/wd/hub/session/aa5b7e55-b282-470e-afca-1030f7b0f3be/element/00000000-0000-001c-ffff-ffff0000020a/displayed[39m
[35m[HTTP][39m [90m{}[39m
[35m[HTTP][39m [37m<-- GET /wd/hub/session/aa5b7e55-b282-470e-afca-1030f7b0f3be/element/00000000-0000-001c-ffff-ffff0000020a/displayed [39m[32m200[39m [90m31 ms - 14[39m
[35m[HTTP][39m [90m[39m
[35m[HTTP][39m [37m-->[39m [37mPOST[39m [37m/wd/hub/session/aa5b7e55-b282-470e-afca-1030f7b0f3be/timeouts[39m
[35m[HTTP][39m [90m{"implicit":50}[39m
[35m[HTTP][39m [37m<-- POST /wd/hub/session/aa5b7e55-b282-470e-afca-1030f7b0f3be/timeouts [39m[32m200[39m [90m3 ms - 14[39m
[35m[HTTP][39m [90m[39m
[35m[HTTP][39m [37m-->[39m [37mGET[39m [37m/wd/hub/session/aa5b7e55-b282-470e-afca-1030f7b0f3be/window/rect[39m
[35m[HTTP][39m [90m{}[39m
[35m[HTTP][39m [37m<-- GET /wd/hub/session/aa5b7e55-b282-470e-afca-1030f7b0f3be/window/rect [39m[32m200[39m [90m28 ms - 50[39m
[35m[HTTP][39m [90m[39m
[35m[HTTP][39m [37m-->[39m [37mPOST[39m [37m/wd/hub/session/aa5b7e55-b282-470e-afca-1030f7b0f3be/elements[39m
[35m[HTTP][39m [90m{"using":"id","value":"id.binar.fp.secondhand:id/seller"}[39m
[35m[HTTP][39m [37m<-- POST /wd/hub/session/aa5b7e55-b282-470e-afca-1030f7b0f3be/elements [39m[32m200[39m [90m214 ms - 139[39m
[35m[HTTP][39m [90m[39m
[35m[HTTP][39m [37m-->[39m [37mGET[39m [37m/wd/hub/session/aa5b7e55-b282-470e-afca-1030f7b0f3be/element/00000000-0000-001c-ffff-ffff0000020d/location[39m
[35m[HTTP][39m [90m{}[39m
[35m[W3C (aa5b7e55)][39m Driver proxy active, passing request on via HTTP proxy
[35m[WD Proxy][39m Replacing sessionId cd859d06-b6c3-4f0e-bd1a-0225dd43baff with aa5b7e55-b282-470e-afca-1030f7b0f3be
[35m[HTTP][39m [37m<-- GET /wd/hub/session/aa5b7e55-b282-470e-afca-1030f7b0f3be/element/00000000-0000-001c-ffff-ffff0000020d/location [39m[32m200[39m [90m66 ms - 76[39m
[35m[HTTP][39m [90m[39m
[35m[HTTP][39m [37m-->[39m [37mPOST[39m [37m/wd/hub/session/aa5b7e55-b282-470e-afca-1030f7b0f3be/timeouts[39m
[35m[HTTP][39m [90m{"implicit":30000}[39m
[35m[HTTP][39m [37m<-- POST /wd/hub/session/aa5b7e55-b282-470e-afca-1030f7b0f3be/timeouts [39m[32m200[39m [90m2 ms - 14[39m
[35m[HTTP][39m [90m[39m
[35m[HTTP][39m [37m-->[39m [37mGET[39m [37m/wd/hub/session/aa5b7e55-b282-470e-afca-1030f7b0f3be/element/00000000-0000-001c-ffff-ffff0000020d/displayed[39m
[35m[HTTP][39m [90m{}[39m
[35m[HTTP][39m [37m<-- GET /wd/hub/session/aa5b7e55-b282-470e-afca-1030f7b0f3be/element/00000000-0000-001c-ffff-ffff0000020d/displayed [39m[32m200[39m [90m59 ms - 14[39m
[35m[HTTP][39m [90m[39m
[35m[HTTP][39m [37m-->[39m [37mPOST[39m [37m/wd/hub/session/aa5b7e55-b282-470e-afca-1030f7b0f3be/timeouts[39m
[35m[HTTP][39m [90m{"implicit":50}[39m
[35m[HTTP][39m [37m<-- POST /wd/hub/session/aa5b7e55-b282-470e-afca-1030f7b0f3be/timeouts [39m[32m200[39m [90m2 ms - 14[39m
[35m[HTTP][39m [90m[39m
[35m[HTTP][39m [37m-->[39m [37mGET[39m [37m/wd/hub/session/aa5b7e55-b282-470e-afca-1030f7b0f3be/window/rect[39m
[35m[HTTP][39m [90m{}[39m
[35m[HTTP][39m [37m<-- GET /wd/hub/session/aa5b7e55-b282-470e-afca-1030f7b0f3be/window/rect [39m[32m200[39m [90m37 ms - 50[39m
[35m[HTTP][39m [90m[39m
[35m[HTTP][39m [37m-->[39m [37mPOST[39m [37m/wd/hub/session/aa5b7e55-b282-470e-afca-1030f7b0f3be/elements[39m
[35m[HTTP][39m [90m{"using":"id","value":"id.binar.fp.secondhand:id/order"}[39m
[35m[HTTP][39m [37m<-- POST /wd/hub/session/aa5b7e55-b282-470e-afca-1030f7b0f3be/elements [39m[32m200[39m [90m253 ms - 139[39m
[35m[HTTP][39m [90m[39m
[35m[HTTP][39m [37m-->[39m [37mGET[39m [37m/wd/hub/session/aa5b7e55-b282-470e-afca-1030f7b0f3be/element/00000000-0000-001c-ffff-ffff00000211/location[39m
[35m[HTTP][39m [90m{}[39m
[35m[W3C (aa5b7e55)][39m Driver proxy active, passing request on via HTTP proxy
[35m[WD Proxy][39m Replacing sessionId cd859d06-b6c3-4f0e-bd1a-0225dd43baff with aa5b7e55-b282-470e-afca-1030f7b0f3be
[35m[HTTP][39m [37m<-- GET /wd/hub/session/aa5b7e55-b282-470e-afca-1030f7b0f3be/element/00000000-0000-001c-ffff-ffff00000211/location [39m[32m200[39m [90m511 ms - 76[39m
[35m[HTTP][39m [90m[39m
[35m[HTTP][39m [37m-->[39m [37mPOST[39m [37m/wd/hub/session/aa5b7e55-b282-470e-afca-1030f7b0f3be/timeouts[39m
[35m[HTTP][39m [90m{"implicit":30000}[39m
[35m[HTTP][39m [37m<-- POST /wd/hub/session/aa5b7e55-b282-470e-afca-1030f7b0f3be/timeouts [39m[32m200[39m [90m2 ms - 14[39m
[35m[HTTP][39m [90m[39m
[35m[HTTP][39m [37m-->[39m [37mGET[39m [37m/wd/hub/session/aa5b7e55-b282-470e-afca-1030f7b0f3be/element/00000000-0000-001c-ffff-ffff00000211/displayed[39m
[35m[HTTP][39m [90m{}[39m
[35m[HTTP][39m [37m<-- GET /wd/hub/session/aa5b7e55-b282-470e-afca-1030f7b0f3be/element/00000000-0000-001c-ffff-ffff00000211/displayed [39m[32m200[39m [90m53 ms - 14[39m
[35m[HTTP][39m [90m[39m
[35m[HTTP][39m [37m-->[39m [37mPOST[39m [37m/wd/hub/session/aa5b7e55-b282-470e-afca-1030f7b0f3be/timeouts[39m
[35m[HTTP][39m [90m{"implicit":50}[39m
[35m[HTTP][39m [37m<-- POST /wd/hub/session/aa5b7e55-b282-470e-afca-1030f7b0f3be/timeouts [39m[32m200[39m [90m3 ms - 14[39m
[35m[HTTP][39m [90m[39m
[35m[HTTP][39m [37m-->[39m [37mGET[39m [37m/wd/hub/session/aa5b7e55-b282-470e-afca-1030f7b0f3be/window/rect[39m
[35m[HTTP][39m [90m{}[39m
[35m[HTTP][39m [37m<-- GET /wd/hub/session/aa5b7e55-b282-470e-afca-1030f7b0f3be/window/rect [39m[32m200[39m [90m25 ms - 50[39m
[35m[HTTP][39m [90m[39m
[35m[HTTP][39m [37m-->[39m [37mPOST[39m [37m/wd/hub/session/aa5b7e55-b282-470e-afca-1030f7b0f3be/elements[39m
[35m[HTTP][39m [90m{"using":"xpath","value":"//*[@class = 'android.view.ViewGroup' and @resource-id = 'id.binar.fp.secondhand:id/logout' and (@text = '' or . = '')]"}[39m
[35m[HTTP][39m [37m<-- POST /wd/hub/session/aa5b7e55-b282-470e-afca-1030f7b0f3be/elements [39m[32m200[39m [90m475 ms - 139[39m
[35m[HTTP][39m [90m[39m
[35m[HTTP][39m [37m-->[39m [37mGET[39m [37m/wd/hub/session/aa5b7e55-b282-470e-afca-1030f7b0f3be/element/00000000-0000-001c-ffff-ffff00000219/location[39m
[35m[HTTP][39m [90m{}[39m
[35m[W3C (aa5b7e55)][39m Driver proxy active, passing request on via HTTP proxy
[35m[WD Proxy][39m Replacing sessionId cd859d06-b6c3-4f0e-bd1a-0225dd43baff with aa5b7e55-b282-470e-afca-1030f7b0f3be
[35m[HTTP][39m [37m<-- GET /wd/hub/session/aa5b7e55-b282-470e-afca-1030f7b0f3be/element/00000000-0000-001c-ffff-ffff00000219/location [39m[32m200[39m [90m72 ms - 77[39m
[35m[HTTP][39m [90m[39m
[35m[HTTP][39m [37m-->[39m [37mPOST[39m [37m/wd/hub/session/aa5b7e55-b282-470e-afca-1030f7b0f3be/timeouts[39m
[35m[HTTP][39m [90m{"implicit":30000}[39m
[35m[HTTP][39m [37m<-- POST /wd/hub/session/aa5b7e55-b282-470e-afca-1030f7b0f3be/timeouts [39m[32m200[39m [90m3 ms - 14[39m
[35m[HTTP][39m [90m[39m
[35m[HTTP][39m [37m-->[39m [37mGET[39m [37m/wd/hub/session/aa5b7e55-b282-470e-afca-1030f7b0f3be/element/00000000-0000-001c-ffff-ffff00000219/displayed[39m
[35m[HTTP][39m [90m{}[39m
[35m[HTTP][39m [37m<-- GET /wd/hub/session/aa5b7e55-b282-470e-afca-1030f7b0f3be/element/00000000-0000-001c-ffff-ffff00000219/displayed [39m[32m200[39m [90m44 ms - 14[39m
[35m[HTTP][39m [90m[39m
[35m[HTTP][39m [37m-->[39m [37mDELETE[39m [37m/wd/hub/session/aa5b7e55-b282-470e-afca-1030f7b0f3be[39m
[35m[HTTP][39m [90m{}[39m
[35m[Appium][39m Removing session aa5b7e55-b282-470e-afca-1030f7b0f3be from our master session list
[35m[HTTP][39m [37m<-- DELETE /wd/hub/session/aa5b7e55-b282-470e-afca-1030f7b0f3be [39m[32m200[39m [90m350 ms - 14[39m
[35m[HTTP][39m [90m[39m
